<?xml version="1.0" standalone="no"?>
<!DOCTYPE svg PUBLIC "-//W3C//DTD SVG 20010904//EN"
  "http://www.w3.org/TR/2001/REC-SVG-20010904/DTD/svg10.dtd">
<svg width="256" height="256">
<g style="">
<g style="fill:#020E0D;stroke:none;</g>
" transform="matrix(0.1 0 0 -0.1 0 300)">
<g style="fill:#A39353;stroke:none;" transform="matrix(0.1 0 0 -0.1 0 300)">
<g style="stroke-width:20;" transform="matrix(0.1 0 0 -0.1 0 300)">
  <path d="M1384 2730 c-100 -50 -115 -179 -49 -440 40 -159 56 -281 46 -349 l-6 -44 -67 -23 c-37 -12 -90 -35 -116 -49 -83 -45 -105 -128 -55 -212 29 -51 31 -43 -31 -132 -38 -54 -31 -89 30 -159 l47 -53 -19 -41 c-32 -70 -72 -116 -155 -178 -57 -42 -100 -65 -149 -80 -82 -24 -117 -51 -152 -117 -41 -74 -54 -158 -40 -238 21 -112 49 -171 112 -239 66 -70 164 -123 282 -152 122 -30 166 -6 252 139 78 133 85 138 208 149 117 11 149 25 193 84 27 36 37 41 95 53 35 6 83 20 107 31 48 21 148 111 169 152 15 29 17 81 4 113 -5 14 -2 26 9 39 11 13 17 43 19 105 3 67 8 91 22 106 33 36 63 118 68 187 4 58 1 72 -20 110 -21 35 -26 57 -26 114 0 59 -5 81 -30 130 -43 85 -126 198 -167 230 -34 25 -40 27 -115 21 l-80 -5 0 33 c0 18 10 79 21 136 46 224 9 360 -132 494 -111 104 -188 128 -275 85z m152 -41 c70 -33 156 -124 194 -204 45 -94 50 -181 21 -331 -11 -60 -22 -125 -23 -144 l-3 -35 -120 -26 c-66 -14 -135 -29 -154 -33 l-34 -8 7 45 c9 62 -8 183 -51 352 -59 234 -50 349 29 388 44 22 83 21 134 -4z m407 -759 c31 -25 117 -141 147 -200 20 -39 43 -140 32 -140 -3 0 -24 17 -47 39 -31 29 -53 40 -90 45 -67 11 -223 -2 -335 -27 -56 -13 -127 -21 -172 -20 -69 1 -78 -1 -78 -17 0 -14 13 -21 54 -30 48 -10 65 -8 157 16 81 21 136 28 245 32 l141 4 72 -68 c83 -77 101 -107 101 -162 0 -46 -22 -123 -45 -158 l-17 -26 -46 52 c-35 38 -58 54 -87 60 -59 14 -211 12 -370 -5 -77 -8 -143 -15 -147 -15 -5 0 -8 -10 -8 -21 0 -20 4 -21 48 -15 26 3 142 9 259 13 l211 6 54 -51 53 -51 3 -78 c4 -98 -7 -119 -56 -102 -23 8 -53 8 -111 0 -45 -6 -137 -8 -216 -4 -131 6 -137 5 -133 -13 3 -16 18 -21 113 -31 61 -6 167 -12 237 -12 115 -1 128 -3 138 -20 18 -34 11 -67 -23 -110 -87 -110 -192 -147 -412 -145 -150 2 -195 12 -267 60 -37 24 -38 25 -38 88 l0 64 -60 66 c-69 76 -74 100 -40 186 35 88 27 132 -37 203 -60 67 -61 80 -19 134 51 65 54 85 22 150 -60 123 -20 163 239 236 159 45 363 83 456 86 33 1 54 -5 72 -19z m-789 -844 c-9 -65 0 -87 65 -159 56 -62 59 -68 54 -106 -8 -58 2 -83 45 -113 60 -42 148 -66 266 -74 l108 -7 -30 -30 c-27 -26 -40 -30 -141 -43 -61 -7 -120 -18 -130 -24 -26 -13 -70 -71 -119 -155 -66 -114 -99 -134 -194 -114 -61 13 -167 59 -218 94 -92 64 -151 188 -153 320 -1 137 51 221 159 255 35 10 74 25 87 31 39 21 178 132 188 151 15 29 19 21 13 -26z"/>
</g>
</g>
<g style="fill:#008083;stroke:none;</g>
" transform="matrix(0.1 0 0 -0.1 0 300)">
<g style="fill:#F4CE95;stroke:none;" transform="matrix(0.1 0 0 -0.1 0 300)">
<g style="stroke-width:20;" transform="matrix(0.1 0 0 -0.1 0 300)">
  <path d="M1402 2693 c-79 -39 -88 -154 -29 -388 43 -169 60 -290 51 -352 l-7 -45 34 8 c19 4 88 19 154 33 l120 26 3 35 c1 19 12 84 23 144 41 210 9 340 -113 458 -95 92 -166 116 -236 81z"/>
</g>
<g style="stroke-width:20;" transform="matrix(0.1 0 0 -0.1 0 300)">
  <path d="M1770 1939 c-133 -21 -243 -44 -355 -76 -259 -73 -299 -113 -239 -236 32 -65 29 -85 -22 -150 -42 -54 -41 -67 19 -134 64 -71 72 -115 37 -203 -34 -86 -29 -110 40 -186 l60 -66 0 -64 c0 -63 1 -64 38 -88 72 -48 117 -58 267 -60 220 -2 325 35 412 145 34 43 41 76 23 110 -10 17 -23 19 -138 20 -70 0 -176 6 -237 12 -95 10 -110 15 -113 31 -4 18 2 19 133 13 79 -4 171 -2 216 4 58 8 88 8 111 0 49 -17 60 4 56 102 l-3 78 -53 51 -54 51 -211 -6 c-117 -4 -233 -10 -259 -13 -44 -6 -48 -5 -48 15 0 11 3 21 8 21 4 0 70 7 147 15 159 17 311 19 370 5 29 -6 52 -22 87 -60 l46 -52 17 26 c23 35 45 112 45 158 0 55 -18 85 -101 162 l-72 68 -141 -4 c-109 -4 -164 -11 -245 -32 -92 -24 -109 -26 -157 -16 -41 9 -54 16 -54 30 0 16 9 18 78 17 45 -1 116 7 172 20 112 25 268 38 335 27 37 -5 59 -16 90 -45 23 -22 44 -39 47 -39 11 0 -12 101 -32 140 -30 59 -116 175 -147 200 -28 22 -75 24 -173 9z"/>
</g>
<g style="stroke-width:20;" transform="matrix(0.1 0 0 -0.1 0 300)">
  <path d="M1141 1112 c-10 -19 -149 -130 -188 -151 -13 -6 -52 -21 -87 -31 -108 -34 -160 -118 -159 -255 2 -132 61 -256 153 -320 51 -35 157 -81 218 -94 95 -20 128 0 194 114 49 84 93 142 119 155 10 6 69 17 130 24 101 13 114 17 141 43 l30 30 -108 7 c-118 8 -206 32 -266 74 -43 30 -53 55 -45 113 5 38 2 44 -54 106 -65 72 -74 94 -65 159 6 47 2 55 -13 26z"/>
</g>
</g>
</g>
</svg>
