<?xml version="1.0" encoding="UTF-8" standalone="no"?>
<!-- Created with Inkscape (http://www.inkscape.org/) -->

<svg
   xmlns:dc="http://purl.org/dc/elements/1.1/"
   xmlns:cc="http://creativecommons.org/ns#"
   xmlns:rdf="http://www.w3.org/1999/02/22-rdf-syntax-ns#"
   xmlns:svg="http://www.w3.org/2000/svg"
   xmlns="http://www.w3.org/2000/svg"
   xmlns:xlink="http://www.w3.org/1999/xlink"
   xmlns:sodipodi="http://sodipodi.sourceforge.net/DTD/sodipodi-0.dtd"
   xmlns:inkscape="http://www.inkscape.org/namespaces/inkscape"
   width="185.34239"
   height="185.34241"
   id="svg5635"
   version="1.1"
   inkscape:version="0.48.5 r10040"
   sodipodi:docname="LED5.svg">
  <defs
     id="defs5637">
    <linearGradient
       x1="138.39632"
       y1="667.39777"
       x2="520.1792"
       y2="509.91232"
       id="linearGradient4283"
       xlink:href="#linearGradient63909-6"
       gradientUnits="userSpaceOnUse"
       gradientTransform="matrix(0.40461314,0,0,0.40461314,415.19625,32.058805)" />
    <linearGradient
       id="linearGradient63909-6">
      <stop
         id="stop63911-1"
         style="stop-color:#e6e6e6;stop-opacity:1"
         offset="0" />
      <stop
         id="stop63913-3"
         style="stop-color:#e6e6e6;stop-opacity:0"
         offset="1" />
    </linearGradient>
    <linearGradient
       y2="509.91232"
       x2="520.1792"
       y1="667.39777"
       x1="138.39632"
       gradientTransform="matrix(0.56220696,0,0,0.56220696,150.176,51.203445)"
       gradientUnits="userSpaceOnUse"
       id="linearGradient5658"
       xlink:href="#linearGradient63909-6"
       inkscape:collect="always" />
    <filter
       color-interpolation-filters="sRGB"
       id="filter63947-6">
      <feGaussianBlur
         id="feGaussianBlur63949-93"
         stdDeviation="3.6503895" />
    </filter>
    <radialGradient
       cx="404.35107"
       cy="492.1553"
       r="155.23357"
       fx="404.35107"
       fy="492.1553"
       id="radialGradient4293"
       xlink:href="#linearGradient63887-0"
       gradientUnits="userSpaceOnUse"
       gradientTransform="matrix(0.72021851,0.63560909,-0.2797586,0.31699896,412.76112,-145.40561)" />
    <linearGradient
       id="linearGradient63887-0">
      <stop
         id="stop63889-9"
         style="stop-color:#585757;stop-opacity:1"
         offset="0" />
      <stop
         id="stop63891-4"
         style="stop-color:#ffffff;stop-opacity:1"
         offset="1" />
    </linearGradient>
    <radialGradient
       r="155.23357"
       fy="492.1553"
       fx="404.35107"
       cy="492.1553"
       cx="404.35107"
       gradientTransform="matrix(1.0007383,0.88317413,-0.3887225,0.44046771,146.40264,-196.95651)"
       gradientUnits="userSpaceOnUse"
       id="radialGradient5716"
       xlink:href="#linearGradient63887-0"
       inkscape:collect="always" />
    <linearGradient
       x1="407.23511"
       y1="280.84256"
       x2="370.64758"
       y2="661.03473"
       id="linearGradient26893"
       xlink:href="#linearGradient63927-96"
       gradientUnits="userSpaceOnUse"
       gradientTransform="matrix(0.38343569,0,0,0.38023848,422.52147,48.310605)" />
    <linearGradient
       id="linearGradient63927-96">
      <stop
         id="stop63929-1"
         style="stop-color:#e6e6e6;stop-opacity:1"
         offset="0" />
      <stop
         id="stop63931-1"
         style="stop-color:#e6e6e6;stop-opacity:0"
         offset="1" />
    </linearGradient>
    <linearGradient
       y2="661.03473"
       x2="370.64758"
       y1="280.84256"
       x1="407.23511"
       gradientTransform="matrix(0.53278105,0,0,0.52833855,159.71714,70.83034)"
       gradientUnits="userSpaceOnUse"
       id="linearGradient5750"
       xlink:href="#linearGradient63927-96"
       inkscape:collect="always" />
    <radialGradient
       cx="379.62262"
       cy="675.33606"
       r="149.60355"
       fx="379.62262"
       fy="675.33606"
       id="radialGradient4301"
       xlink:href="#linearGradient63334"
       gradientUnits="userSpaceOnUse"
       gradientTransform="matrix(0.04259085,0.32855799,-0.40125587,0.05201465,812.00918,170.5681)" />
    <linearGradient
       id="linearGradient63334">
      <stop
         id="stop63336"
         style="stop-color:#00ffff;stop-opacity:1"
         offset="0" />
      <stop
         id="stop63338"
         style="stop-color:#00ffff;stop-opacity:0"
         offset="1" />
    </linearGradient>
    <radialGradient
       r="149.60355"
       fy="675.33606"
       fx="379.62262"
       cy="675.33606"
       cx="379.62262"
       gradientTransform="matrix(0.05917967,0.4565289,-0.55754206,0.07227397,700.69716,228.49304)"
       gradientUnits="userSpaceOnUse"
       id="radialGradient5784"
       xlink:href="#linearGradient63334"
       inkscape:collect="always" />
    <linearGradient
       x1="138.39632"
       y1="667.39777"
       x2="520.1792"
       y2="509.91232"
       id="linearGradient4283-5"
       xlink:href="#linearGradient63909-6-4"
       gradientUnits="userSpaceOnUse"
       gradientTransform="matrix(0.40461314,0,0,0.40461314,415.19625,32.058805)" />
    <linearGradient
       id="linearGradient63909-6-4">
      <stop
         id="stop63911-1-8"
         style="stop-color:#e6e6e6;stop-opacity:1"
         offset="0" />
      <stop
         id="stop63913-3-4"
         style="stop-color:#e6e6e6;stop-opacity:0"
         offset="1" />
    </linearGradient>
    <linearGradient
       y2="509.91232"
       x2="520.1792"
       y1="667.39777"
       x1="138.39632"
       gradientTransform="matrix(0.56220696,0,0,0.56220696,111.20821,48.78469)"
       gradientUnits="userSpaceOnUse"
       id="linearGradient5818"
       xlink:href="#linearGradient63909-6-4"
       inkscape:collect="always" />
    <radialGradient
       cx="404.35107"
       cy="492.1553"
       r="155.23357"
       fx="404.35107"
       fy="492.1553"
       id="radialGradient4293-1"
       xlink:href="#linearGradient63887-0-9"
       gradientUnits="userSpaceOnUse"
       gradientTransform="matrix(0.72021851,0.63560909,-0.2797586,0.31699896,412.76112,-145.40561)" />
    <linearGradient
       id="linearGradient63887-0-9">
      <stop
         id="stop63889-9-3"
         style="stop-color:#585757;stop-opacity:1"
         offset="0" />
      <stop
         id="stop63891-4-4"
         style="stop-color:#ffffff;stop-opacity:1"
         offset="1" />
    </linearGradient>
    <radialGradient
       r="155.23357"
       fy="492.1553"
       fx="404.35107"
       cy="492.1553"
       cx="404.35107"
       gradientTransform="matrix(1.0007383,0.88317413,-0.3887225,0.44046771,147.95507,-196.27109)"
       gradientUnits="userSpaceOnUse"
       id="radialGradient5938"
       xlink:href="#linearGradient63887-0-9"
       inkscape:collect="always" />
    <filter
       color-interpolation-filters="sRGB"
       id="filter63881-6">
      <feGaussianBlur
         id="feGaussianBlur63883-9"
         stdDeviation="7.4804688" />
    </filter>
    <filter
       color-interpolation-filters="sRGB"
       id="filter63947-6-2">
      <feGaussianBlur
         id="feGaussianBlur63949-93-2"
         stdDeviation="3.6503895" />
    </filter>
    <linearGradient
       x1="138.39632"
       y1="667.39777"
       x2="520.1792"
       y2="509.91232"
       id="linearGradient4283-0"
       xlink:href="#linearGradient63909-6-0"
       gradientUnits="userSpaceOnUse"
       gradientTransform="matrix(0.40461314,0,0,0.40461314,415.19625,32.058805)" />
    <linearGradient
       id="linearGradient63909-6-0">
      <stop
         id="stop63911-1-0"
         style="stop-color:#e6e6e6;stop-opacity:1"
         offset="0" />
      <stop
         id="stop63913-3-42"
         style="stop-color:#e6e6e6;stop-opacity:0"
         offset="1" />
    </linearGradient>
    <linearGradient
       y2="509.91232"
       x2="520.1792"
       y1="667.39777"
       x1="138.39632"
       gradientTransform="matrix(0.56220696,0,0,0.56220696,151.17181,49.701341)"
       gradientUnits="userSpaceOnUse"
       id="linearGradient6074"
       xlink:href="#linearGradient63909-6-0"
       inkscape:collect="always" />
    <filter
       color-interpolation-filters="sRGB"
       id="filter63947-6-29">
      <feGaussianBlur
         id="feGaussianBlur63949-93-9"
         stdDeviation="3.6503895" />
    </filter>
  </defs>
  <sodipodi:namedview
     id="base"
     pagecolor="#ffffff"
     bordercolor="#666666"
     borderopacity="1.0"
     inkscape:pageopacity="0.0"
     inkscape:pageshadow="2"
     inkscape:zoom="4.5018623"
     inkscape:cx="94.003978"
     inkscape:cy="92.671204"
     inkscape:document-units="px"
     inkscape:current-layer="layer1"
     showgrid="false"
     fit-margin-top="0"
     fit-margin-left="0"
     fit-margin-right="0"
     fit-margin-bottom="0"
     inkscape:window-width="2560"
     inkscape:window-height="1376"
     inkscape:window-x="-3"
     inkscape:window-y="0"
     inkscape:window-maximized="1" />
  <metadata
     id="metadata5640">
    <rdf:RDF>
      <cc:Work
         rdf:about="">
        <dc:format>image/svg+xml</dc:format>
        <dc:type
           rdf:resource="http://purl.org/dc/dcmitype/StillImage" />
      </cc:Work>
    </rdf:RDF>
  </metadata>
  <g
     inkscape:label="Ebene 1"
     inkscape:groupmode="layer"
     id="layer1"
     transform="translate(-257.73951,-314.00436)">
    <path
       d="m 350.50974,319.44338 c -48.19789,0 -87.28251,39.06639 -87.28251,87.26428 0,48.19788 39.08462,87.28252 87.28251,87.28252 48.19788,0 87.26427,-39.08464 87.26427,-87.28252 0,-48.19789 -39.06639,-87.26428 -87.26427,-87.26428 z m -0.65626,15.75023 c 39.13813,0 70.85779,31.71966 70.85779,70.85779 0,39.13814 -31.71966,70.87603 -70.85779,70.87603 -39.13814,0 -70.87602,-31.73789 -70.87602,-70.87603 0,-39.13813 31.73787,-70.85779 70.87602,-70.85779 z"
       id="path63348"
       style="fill:#585757;fill-opacity:1;fill-rule:nonzero;stroke:none"
       inkscape:connector-curvature="0" />
    <path
       d="m -162.66398,-277.1914 c -82.62376,0 -149.625,66.96999 -149.625,149.59375 0,82.62376 67.00124,149.625 149.625,149.625 82.62376,0 149.59375,-67.00124 149.59375,-149.625 0,-82.62376 -66.96999,-149.59375 -149.59375,-149.59375 z m -1.125,27 c 67.09298,0 121.46875,54.37577 121.46875,121.46875 0,67.09298 -54.37577,121.5 -121.46875,121.5 -67.09298,0 -121.5,-54.40702 -121.5,-121.5 0,-67.09298 54.40702,-121.46875 121.5,-121.46875 z"
       transform="matrix(0.56220698,0,0,0.56220698,441.96685,479.11233)"
       id="path63355"
       style="fill:#000000;fill-opacity:1;fill-rule:nonzero;stroke:none;filter:url(#filter63881-6)"
       inkscape:connector-curvature="0" />
    <path
       d="m 434.03339,407.15443 c 0,46.45165 -37.65651,84.10815 -84.10817,84.10815 -46.45164,0 -84.10814,-37.6565 -84.10814,-84.10815 0,-46.45166 37.6565,-84.10816 84.10814,-84.10816 46.45166,0 84.10817,37.6565 84.10817,84.10816 z"
       id="path63302"
       style="fill:#1e64c6;fill-opacity:1;fill-rule:nonzero;stroke:none"
       inkscape:connector-curvature="0" />
    <path
       d="m 350.30141,313.83834 c -51.1789,0 -92.68088,41.48262 -92.68088,92.66152 0,51.17891 41.50198,92.68088 92.68088,92.68088 51.17889,0 92.66151,-41.50197 92.66151,-92.68088 0,-51.1789 -41.48262,-92.66152 -92.66151,-92.66152 z m -0.69685,16.72438 c 41.5588,0 75.24029,33.68149 75.24029,75.2403 0,41.55881 -33.68149,75.25966 -75.24029,75.25966 -41.55882,0 -75.25967,-33.70085 -75.25967,-75.25966 0,-41.55881 33.70085,-75.2403 75.25967,-75.2403 z"
       id="path63895"
       style="fill:#333333;fill-opacity:1;fill-rule:nonzero;stroke:none"
       inkscape:connector-curvature="0" />
    <path
       d="m 350.42039,314.00436 c -51.17891,0 -92.68088,41.48262 -92.68088,92.66152 0,51.17891 41.50197,92.68088 92.68088,92.68088 51.17889,0 92.66151,-41.50197 92.66151,-92.68088 0,-51.1789 -41.48262,-92.66152 -92.66151,-92.66152 z m -0.69685,16.72437 c 41.5588,0 75.24029,33.6815 75.24029,75.2403 0,41.55882 -33.68149,75.25967 -75.24029,75.25967 -41.55882,0 -75.25967,-33.70085 -75.25967,-75.25967 0,-41.5588 33.70085,-75.2403 75.25967,-75.2403 z"
       id="path63907"
       style="fill:url(#linearGradient5658);fill-opacity:1;fill-rule:nonzero;stroke:none"
       inkscape:connector-curvature="0" />
    <path
       d="m 478.8194,641.94556 c 0,65.89152 -55.55226,119.30716 -124.07944,119.30716 -68.52718,0 -124.07944,-53.41564 -124.07944,-119.30716 0,-65.89153 55.55226,-119.30716 124.07944,-119.30716 68.52718,0 124.07944,53.41563 124.07944,119.30716 z"
       transform="matrix(0.56220698,0,0,0.59968746,149.5349,21.073758)"
       id="path63953"
       style="fill:none;stroke:#000000;stroke-width:2.74304032;stroke-miterlimit:4;filter:url(#filter63947-6)"
       inkscape:connector-curvature="0" />
    <path
       d="m 432.64021,391.79848 c 0,46.45165 -37.65651,84.10815 -84.10817,84.10815 -46.45164,0 -84.10814,-37.6565 -84.10814,-84.10815 0,-46.45166 37.6565,-84.10816 84.10814,-84.10816 46.45166,0 84.10817,37.6565 84.10817,84.10816 z"
       id="path63332"
       style="fill:url(#radialGradient5784);fill-opacity:1;fill-rule:nonzero;stroke:none"
       inkscape:connector-curvature="0" />
    <path
       d="m 349.62783,318.75382 c -48.19789,0 -87.28251,39.06639 -87.28251,87.26428 0,48.19788 39.08462,87.28252 87.28251,87.28252 48.19788,0 87.26427,-39.08464 87.26427,-87.28252 0,-48.19789 -39.06639,-87.26428 -87.26427,-87.26428 z m -0.65626,15.75023 c 39.13813,0 70.85779,31.71966 70.85779,70.85779 0,39.13814 -31.71966,70.87603 -70.85779,70.87603 -39.13814,0 -70.87602,-31.73789 -70.87602,-70.87603 0,-39.13813 31.73787,-70.85779 70.87602,-70.85779 z"
       id="path63885"
       style="fill:url(#radialGradient5716);fill-opacity:1;fill-rule:nonzero;stroke:none"
       inkscape:connector-curvature="0" />
    <path
       d="m 349.57033,339.39143 c -22.70547,0 -42.67332,11.96833 -54.14387,30.03274 9.85059,23.36239 32.65997,39.72446 59.22194,39.72446 22.705,0 42.65656,-11.95243 54.12722,-30.01624 -9.84833,-23.36764 -32.63958,-39.74096 -59.20529,-39.74096 z"
       id="path63999"
       style="fill:url(#linearGradient5750);fill-opacity:1;fill-rule:nonzero;stroke:none"
       inkscape:connector-curvature="0" />
    <path
       d="m 351.18026,319.43924 c -48.19789,0 -87.28251,39.06639 -87.28251,87.26428 0,48.19788 39.08462,87.28252 87.28251,87.28252 48.19788,0 87.26427,-39.08464 87.26427,-87.28252 0,-48.19789 -39.06639,-87.26428 -87.26427,-87.26428 z m -0.65626,15.75023 c 39.13813,0 70.85779,31.71966 70.85779,70.85779 0,39.13814 -31.71966,70.87603 -70.85779,70.87603 -39.13814,0 -70.87602,-31.73789 -70.87602,-70.87603 0,-39.13813 31.73787,-70.85779 70.87602,-70.85779 z"
       id="path63885-2"
       style="fill:url(#radialGradient5938);fill-opacity:1;fill-rule:nonzero;stroke:none"
       inkscape:connector-curvature="0" />
    <path
       d="m 478.8194,641.94556 c 0,65.89152 -55.55226,119.30716 -124.07944,119.30716 -68.52718,0 -124.07944,-53.41564 -124.07944,-119.30716 0,-65.89153 55.55226,-119.30716 124.07944,-119.30716 68.52718,0 124.07944,53.41563 124.07944,119.30716 z"
       transform="matrix(0.56220698,0,0,0.59968746,149.51504,20.873969)"
       id="path63953-8"
       style="fill:none;stroke:#000000;stroke-width:2.74304032;stroke-miterlimit:4;filter:url(#filter63947-6-2)"
       inkscape:connector-curvature="0" />
    <path
       d="m 478.8194,641.94556 c 0,65.89152 -55.55226,119.30716 -124.07944,119.30716 -68.52718,0 -124.07944,-53.41564 -124.07944,-119.30716 0,-65.89153 55.55226,-119.30716 124.07944,-119.30716 68.52718,0 124.07944,53.41563 124.07944,119.30716 z"
       transform="matrix(0.56220698,0,0,0.59968746,150.43417,20.413987)"
       id="path63951"
       style="fill:none;stroke:#000000;stroke-width:2.74304032;stroke-miterlimit:4;filter:url(#filter63947-6-29)"
       inkscape:connector-curvature="0" />
  </g>
</svg>
