<?xml version="1.0" encoding="UTF-8" standalone="no"?>
<!-- Created with Inkscape (http://www.inkscape.org/) -->
<svg xmlns:inkscape="http://www.inkscape.org/namespaces/inkscape"
     xmlns:rdf="http://www.w3.org/1999/02/22-rdf-syntax-ns#"
     xmlns="http://www.w3.org/2000/svg"
     xmlns:cc="http://creativecommons.org/ns#"
     xmlns:dc="http://purl.org/dc/elements/1.1/"
     xmlns:sodipodi="http://sodipodi.sourceforge.net/DTD/sodipodi-0.dtd"
     xmlns:svg="http://www.w3.org/2000/svg"
     xmlns:ns1="http://sozi.baierouge.fr"
     xmlns:xlink="http://www.w3.org/1999/xlink"
     id="svg2"
     sodipodi:docname="player_bugmenot_tct.svg"
     inkscape:export-filename="/home/tct/Desktop/player_bugmenot_tct.png"
     viewBox="0 0 720.00 350.00"
     sodipodi:version="0.32"
     inkscape:export-xdpi="31.91"
     version="1.0"
     inkscape:output_extension="org.inkscape.output.svg.inkscape"
     inkscape:export-ydpi="31.91"
     inkscape:version="0.48.0 r9654">
  <defs id="defs4">
    <filter id="filter3316" inkscape:collect="always" color-interpolation-filters="sRGB">
      <feGaussianBlur id="feGaussianBlur3318" stdDeviation="0.58671616" inkscape:collect="always"/>
    </filter>
    <filter id="filter3316-1" color-interpolation-filters="sRGB" inkscape:collect="always">
      <feGaussianBlur id="feGaussianBlur3318-4" stdDeviation="0.58671616" inkscape:collect="always"/>
    </filter>
    <filter id="filter3316-9" color-interpolation-filters="sRGB" inkscape:collect="always">
      <feGaussianBlur id="feGaussianBlur3318-0" stdDeviation="0.58671616" inkscape:collect="always"/>
    </filter>
    <filter id="filter3316-1-1" color-interpolation-filters="sRGB" inkscape:collect="always">
      <feGaussianBlur id="feGaussianBlur3318-4-9" stdDeviation="0.58671616" inkscape:collect="always"/>
    </filter>
    <filter id="filter3316-1-1-1" color-interpolation-filters="sRGB" inkscape:collect="always">
      <feGaussianBlur id="feGaussianBlur3318-4-9-5" stdDeviation="0.58671616" inkscape:collect="always"/>
    </filter>
    <filter id="filter3316-1-1-15" color-interpolation-filters="sRGB" inkscape:collect="always">
      <feGaussianBlur id="feGaussianBlur3318-4-9-54" stdDeviation="0.58671616" inkscape:collect="always"/>
    </filter>
    <filter id="filter3316-1-1-8" color-interpolation-filters="sRGB" inkscape:collect="always">
      <feGaussianBlur id="feGaussianBlur3318-4-9-3" stdDeviation="0.58671616" inkscape:collect="always"/>
    </filter>
    <filter id="filter3316-1-1-5" color-interpolation-filters="sRGB" inkscape:collect="always">
      <feGaussianBlur id="feGaussianBlur3318-4-9-2" stdDeviation="0.58671616" inkscape:collect="always"/>
    </filter>
  </defs>
  <sodipodi:namedview
    id="base"
    bordercolor="#666666"
    inkscape:pageshadow="2"
    inkscape:window-y="0"
    fit-margin-left="0"
    pagecolor="#ffffff"
    inkscape:window-height="718"
    inkscape:window-maximized="1"
    inkscape:zoom="1"
    inkscape:window-x="-2"
    showgrid="false"
    borderopacity="1.0"
    inkscape:current-layer="layer1"
    inkscape:cx="163.70204"
    inkscape:cy="118.61378"
    fit-margin-top="0"
    fit-margin-right="0"
    fit-margin-bottom="0"
    inkscape:window-width="1366"
    inkscape:pageopacity="0.0"
    inkscape:document-units="px"/>
  <g id="layer1" inkscape:label="Ebene 1" inkscape:groupmode="layer" transform="translate(-2.9497 -18.076)">
    <g id="g4059">
      <g id="g4147">
        <g id="g3356_pause_enabled" transform="translate(-104 -197.93)">
          <path id="path2383_pause_enabled"
            sodipodi:rx="54.285713"
            sodipodi:ry="51.42857"
            style="fill-rule:evenodd;fill-opacity:.25098;filter:url(#filter3316-9);stroke:#000000;fill:#c1c1c1"
            sodipodi:type="arc"
            d="m211.43 266.65c0 28.403-24.305 51.429-54.286 51.429s-54.286-23.025-54.286-51.429c0-28.403 24.305-51.429 54.286-51.429s54.286 23.025 54.286 51.429z"
            transform="matrix(.99975 0 0 1.0553 6.0393 -9.0992)"
            sodipodi:cy="266.64789"
            sodipodi:cx="157.14285"
          />
          <rect
            id="rect3237"
            style="fill-rule:evenodd;stroke:#000000;stroke-width:.93142;fill:#2c2c2c"
            ry="0"
            height="56.783"
            width="17.211"
            y="243.9"
            x="170.54"
          />
          <rect
            id="rect3239"
            style="fill-rule:evenodd;stroke:#000000;stroke-width:.93142;fill:#2c2c2c"
            ry="0"
            height="56.783"
            width="17.211"
            y="243.9"
            x="138.54"
          />
          <path
            id="path3245"
            d="m162.66 219.16c-29.13 0.00001-52.781 24.323-52.781 54.281 46.899-10.605 58.321-10.745 105.53 0 0.00001-29.958-23.62-54.281-52.75-54.281z" 
            sodipodi:nodetypes="cccc"
            style="opacity:.5;stroke-opacity:.18257;fill-rule:evenodd;stroke:#000000;fill:#ffffff"
            inkscape:connector-curvature="0"
          />
        </g>
        <g id="g3336_stop_enabled" transform="translate(-104.86 -198)">
          <path 
            id="path3320"
            sodipodi:rx="54.285713"
            sodipodi:ry="51.42857"
            style="fill-rule:evenodd;fill-opacity:.25098;filter:url(#filter3316-9);stroke:#000000;fill:#c1c1c1"
            sodipodi:type="arc"
            d="m211.43 266.65c0 28.403-24.305 51.429-54.286 51.429s-54.286-23.025-54.286-51.429c0-28.403 24.305-51.429 54.286-51.429s54.286 23.025 54.286 51.429z" transform="matrix(.99975 0 0 1.0553 126.9 -9.028)" 
            sodipodi:cy="266.64789"
            sodipodi:cx="157.14285"
          />
          <rect
            id="rect3324"
            style="fill-rule:evenodd;stroke:#000000;stroke-width:1.7359;fill:#2c2c2c"
            ry="0"
            height="58.264"
            width="58.264"
            y="243.23"
            x="254.87"
          />
          <path
            id="path3326"
            d="m283.51 219.23c-29.13 0.00001-52.781 24.323-52.781 54.281 46.899-10.605 58.321-10.745 105.53 0 0.00001-29.958-23.62-54.281-52.75-54.281z"
            sodipodi:nodetypes="cccc"
            style="opacity:.5;stroke-opacity:.18257;fill-rule:evenodd;stroke:#000000;fill:#ffffff"
            inkscape:connector-curvature="0"
          />
        </g>

        <g id="g3368_play_enabled" transform="translate(-105 -200)">
          <path
            id="path3343"
            sodipodi:rx="54.285713"
            sodipodi:ry="51.42857"
            style="fill-rule:evenodd;fill-opacity:.25098;filter:url(#filter3316-9);stroke:#000000;fill:#c1c1c1"
            sodipodi:type="arc"
            d="m211.43 266.65c0 28.403-24.305 51.429-54.286 51.429s-54.286-23.025-54.286-51.429c0-28.403 24.305-51.429 54.286-51.429s54.286 23.025 54.286 51.429z"
            transform="matrix(.99975 0 0 1.0553 247.9 -7.028)"
            sodipodi:cy="266.64789"
            sodipodi:cx="157.14285"/>
          <path id="path3366"
            style="stroke-opacity:.18257;fill-rule:evenodd;stroke:#000000;fill:#2c2c2c"
            sodipodi:type="star"
            d="m233 452.36-44.049 22.432-44.049 22.432 2.5981-49.363 2.5981-49.363 41.451 26.932z"
            sodipodi:r1="57.078892"
            inkscape:flatsided="false"
            transform="matrix(.70219 -.033524 .034618 0.68 263.88 -25.238)"
            sodipodi:arg2="1.0997806"
            sodipodi:arg1="0.052583062"
            inkscape:randomized="0"
            sodipodi:cy="449.36218"
            sodipodi:cx="176"
            inkscape:rounded="0"
            sodipodi:r2="28.539446"
            sodipodi:sides="3"/>
          <path id="path3347"
            d="m404.51 221.23c-29.13 0.00001-52.781 24.323-52.781 54.281 46.899-10.605 58.321-10.745 105.53 0 0.00001-29.958-23.62-54.281-52.75-54.281z"
            sodipodi:nodetypes="cccc"
            style="opacity:.5;stroke-opacity:.18257;fill-rule:evenodd;stroke:#000000;fill:#ffffff"
            inkscape:connector-curvature="0"/>
        </g>

        <g id="g3486_ff_enabled" transform="translate(-4 2.7855)">
          <path id="path3375"
            sodipodi:rx="54.285713"
            sodipodi:ry="51.42857"
            style="fill-rule:evenodd;fill-opacity:.25098;filter:url(#filter3316-9);stroke:#000000;fill:#c1c1c1"
            sodipodi:type="arc"
            d="m211.43 266.65c0 28.403-24.305 51.429-54.286 51.429s-54.286-23.025-54.286-51.429c0-28.403 24.305-51.429 54.286-51.429s54.286 23.025 54.286 51.429z"
            transform="matrix(.99975 0 0 1.0553 264.9 -209.81)"
            sodipodi:cy="266.64789"
            sodipodi:cx="157.14285"/>
          <g id="g3398" transform="matrix(0 1.3126 -1.3126 0 830.87 -749.14)">
            <path id="path3388"
              style="stroke-opacity:.18257;fill-rule:evenodd;stroke:#000000;fill:#2c2c2c"
              sodipodi:type="star"
              sodipodi:sides="3"
              sodipodi:r1="112.00893"
              sodipodi:r2="56.004463"
              sodipodi:arg1="0.13432144"
              sodipodi:arg2="1.181519"
              transform="matrix(-.028218 -.20148 .20148 -.028218 543.17 382.34)"
              inkscape:randomized="0"
              sodipodi:cy="438.36218"
              sodipodi:cx="212"
              inkscape:rounded="0"
              inkscape:flatsided="false"
              d="m323 453.36-89.75 36.82-89.74 36.81 12.99-96.13l12.99-96.129 76.755 59.314z"/>
            <path id="path3390"
              style="stroke-opacity:.18257;fill-rule:evenodd;stroke:#000000;fill:#2c2c2c"
              sodipodi:type="star"
              sodipodi:sides="3"
              sodipodi:r1="112.00893"
              sodipodi:r2="56.004463"
              sodipodi:arg1="0.13432144"
              sodipodi:arg2="1.181519"
              transform="matrix(-.028218 -.20148 .20148 -.028218 542.61 359.09)"
              inkscape:randomized="0"
              sodipodi:cy="438.36218"
              sodipodi:cx="212"
              inkscape:rounded="0"
              inkscape:flatsided="false"
              d="m323 453.36-89.75 36.82-89.74 36.81 12.99-96.13l12.99-96.129 76.755 59.314z"/>
          </g>
          <path id="path3379"
            d="m421.51 18.442c-29.13 0.00001-52.781 24.323-52.781 54.281 46.899-10.605 58.321-10.745 105.53 0 0.00001-29.958-23.62-54.281-52.75-54.281z"
            sodipodi:nodetypes="cccc"
            style="opacity:.5;stroke-opacity:.18257;fill-rule:evenodd;stroke:#000000;fill:#f0f0f0"
            inkscape:connector-curvature="0"/>
        </g>
        <g id="g3493_rewind_enabled" transform="translate(-6 .0000064373)">
          <path id="path3402"
            sodipodi:rx="54.285713"
            sodipodi:ry="51.42857"
            style="fill-rule:evenodd;fill-opacity:.25098;filter:url(#filter3316-9);stroke:#000000;fill:#c1c1c1"
            sodipodi:type="arc"
            d="m211.43 266.65c0 28.403-24.305 51.429-54.286 51.429s-54.286-23.025-54.286-51.429c0-28.403 24.305-51.429 54.286-51.429s54.286 23.025 54.286 51.429z"
            transform="matrix(.99975 0 0 1.0553 387.9 -207.03)"
            sodipodi:cy="266.64789"
            sodipodi:cx="157.14285"/>
            <g id="g3406" transform="matrix(0 -1.3126 1.3126 0 136.13 895.08)">
              <path id="path3408"
                style="stroke-opacity:.18257;fill-rule:evenodd;stroke:#000000;fill:#2c2c2c"
                sodipodi:type="star"
                sodipodi:sides="3"
                sodipodi:r1="112.00893"
                sodipodi:r2="56.004463"
                sodipodi:arg1="0.13432144"
                sodipodi:arg2="1.181519"
                transform="matrix(-.028218 -.20148 .20148 -.028218 543.17 382.34)"
                inkscape:randomized="0"
                sodipodi:cy="438.36218"
                sodipodi:cx="212"
                inkscape:rounded="0"
                inkscape:flatsided="false"
                d="m323 453.36-89.75 36.82-89.74 36.81 12.99-96.13l12.99-96.129 76.755 59.314z"/>
              <path id="path3410"
                style="stroke-opacity:.18257;fill-rule:evenodd;stroke:#000000;fill:#2c2c2c"
                sodipodi:type="star"
                sodipodi:sides="3"
                sodipodi:r1="112.00893"
                sodipodi:r2="56.004463"
                sodipodi:arg1="0.13432144"
                sodipodi:arg2="1.181519"
                transform="matrix(-.028218 -.20148 .20148 -.028218 542.61 359.09)"
                inkscape:randomized="0"
                sodipodi:cy="438.36218"
                sodipodi:cx="212"
                inkscape:rounded="0"
                inkscape:flatsided="false"
                d="m323 453.36-89.75 36.82-89.74 36.81 12.99-96.13l12.99-96.129 76.755 59.314z"/>
            </g>
            <path id="path3404"
              d="m544.51 21.227c-29.13 0.00001-52.781 24.323-52.781 54.281 46.899-10.605 58.321-10.745 105.53 0 0.00001-29.958-23.62-54.281-52.75-54.281z"
              sodipodi:nodetypes="cccc"
              style="opacity:.5;stroke-opacity:.18257;fill-rule:evenodd;stroke:#000000;fill:#f0f0f0"
              inkscape:connector-curvature="0"/>
        </g>
      </g>


      <!-- custom button in the same style -->

      <g id="g3356_step_forward_enabled" transform="translate(496 -198)">
        <!--
        <path id="path3388-custom"
          style="stroke-opacity:.18257;fill-rule:evenodd;stroke:#000000;fill:#9c2c2c"
          sodipodi:type="star"
          sodipodi:sides="3"
          sodipodi:r1="12.00893"
          sodipodi:r2="156.004463"
          sodipodi:arg1="0.13432144"
          sodipodi:arg2="1.181519"
          transform="matrix(-.028218 -.20148 .20148 -.028218 243.17 482.34)"
          inkscape:randomized="0"
          sodipodi:cy="338.36218"
          sodipodi:cx="112"
          inkscape:rounded="0"
          inkscape:flatsided="false"
          d="m30 83.36-89.75 36.82-89.74 36.81 12.99-96.13l12.99-96.129 76.755 59.314z"/>
        <path id="path3410_custom"
          style="stroke-opacity:.18257;fill-rule:evenodd;stroke:#000000;fill:#2c2c2c"
          sodipodi:type="star"
          sodipodi:sides="3"
          sodipodi:r1="12.00893"
          sodipodi:r2="156.004463"
          sodipodi:arg1="0.53432144"
          sodipodi:arg2="1.381519"
          transform="matrix(-.028218 -.20148 .20148 -.028218 542.61 359.09)"
          inkscape:randomized="0"
          sodipodi:cy="238.36218"
          sodipodi:cx="112"
          inkscape:rounded="0"
          inkscape:flatsided="false"
          d="m123 353.36-89.75 36.82-89.74 36.81 12.99-96.13l12.99-96.129 76.755 59.314z"/>
        <path id="path3410_custom"
          style="stroke-opacity:.38257;fill-rule:evenodd;stroke:#000000;fill:#ac2c2c"
          sodipodi:type="star"
          sodipodi:sides="3"
          sodipodi:r1="112.00893"
          sodipodi:r2="56.004463"
          sodipodi:arg1="0.13432144"
          sodipodi:arg2="1.181519"
          transform="matrix(-.028218 -.20148 .20148 -.028218 542.61 359.09)"
          inkscape:randomized="0"
          sodipodi:cy="438.36218"
          sodipodi:cx="212"
          inkscape:rounded="0"
          inkscape:flatsided="false"
          d="m223 253.36-69.75 36.82-89.74 36.81 12.99-96.13l12.99-96.129 76.755 59.314z"/>
        -->
        <path
          id="path2383"
          sodipodi:rx="54.285713"
          sodipodi:ry="51.42857"
          style="fill-rule:evenodd;fill-opacity:.25098;filter:url(#filter3316-9);stroke:#000000;fill:#c1c1c1"
          sodipodi:type="arc"
          d="m211.43 266.65c0 28.403-24.305 51.429-54.286 51.429s-54.286-23.025-54.286-51.429c0-28.403 24.305-51.429 54.286-51.429s54.286 23.025 54.286 51.429z"
          transform="matrix(.99975 0 0 1.0553 6.0393 -9.0992)"
          sodipodi:cy="266.64789"
          sodipodi:cx="157.14285"
        />
        <rect
          id="rect3237"
          style="fill-rule:evenodd;stroke:#000000;stroke-width:.93142;fill:#2c2c2c"
          ry="0"
          height="56.783"
          width="17.211"
          y="243.9"
          x="170.54"
        />
        <path
          id="path3245"
          d="m162.66 219.16c-29.13 0.00001-52.781 24.323-52.781 54.281 46.899-10.605 58.321-10.745 105.53 0 0.00001-29.958-23.62-54.281-52.75-54.281z" 
          sodipodi:nodetypes="cccc"
          style="opacity:.5;stroke-opacity:.18257;fill-rule:evenodd;stroke:#000000;fill:#ffffff"
          inkscape:connector-curvature="0"
        />
        <path
          id="path9245"
          d="m362.66 219.16c-29.13 0.00001-52.781 24.323-52.781 54.281 46.899-10.605 58.321-10.745 105.53 0 0.00001-29.958-23.62-54.281-52.75-54.281z" 
          sodipodi:nodetypes="cccc"
          style="opacity:.9;stroke-opacity:.18257;fill-rule:evenodd;stroke:#000000;fill:#ff0fff"
          inkscape:connector-curvature="0"
        />
      </g>

      <!-- end of custom button -->


      <g id="g4147" transform="translate(0 -120.15)">

        <g id="g4141_pause_active">
          <path id="path2383-3"
            sodipodi:rx="54.285713"
            sodipodi:ry="51.42857"
            style="fill-rule:evenodd;fill-opacity:.25098;filter:url(#filter3316-9);stroke:#000000;fill:#c1c1c1"
            sodipodi:type="arc"
            d="m211.43 266.65c0 28.403-24.305 51.429-54.286 51.429s-54.286-23.025-54.286-51.429c0-28.403 24.305-51.429 54.286-51.429s54.286 23.025 54.286 51.429z"
            transform="matrix(.99975 0 0 1.0553 -97.961 28.758)"
            sodipodi:cy="266.64789"
            sodipodi:cx="157.14285"/>
          <rect id="rect3237-7"
            style="fill-rule:evenodd;stroke:#000000;stroke-width:.93142;fill:#00d2d5"
            ry="0"
            height="56.783"
            width="17.211"
            y="281.76"
            x="66.537"/>
          <rect id="rect3239-3"
            style="fill-rule:evenodd;stroke:#000000;stroke-width:.93142;fill:#00d2d5"
            ry="0"
            height="56.783"
            width="17.211"
            y="281.76"
            x="34.537"/>
          <path id="path3245-2"
            inkscape:connector-curvature="0"
            sodipodi:nodetypes="cccc"
            style="opacity:.5;stroke-opacity:.18257;fill-rule:evenodd;stroke:#000000;fill:#f0f0f0"
            d="m58.656 257.01c-29.13 0-52.781 24.33-52.781 54.28 46.899-10.605 58.321-10.745 105.53 0 0.00001-29.958-23.62-54.281-52.75-54.281z"/>
        </g>
        <g id="g4136_stop_active">
          <path id="path3320-5"
            sodipodi:rx="54.285713"
            sodipodi:ry="51.42857"
            style="fill-rule:evenodd;fill-opacity:.25098;filter:url(#filter3316-9);stroke:#000000;fill:#c1c1c1"
            sodipodi:type="arc"
            d="m211.43 266.65c0 28.403-24.305 51.429-54.286 51.429s-54.286-23.025-54.286-51.429c0-28.403 24.305-51.429 54.286-51.429s54.286 23.025 54.286 51.429z"
            transform="matrix(.99975 0 0 1.0553 22.039 28.758)"
            sodipodi:cy="266.64789"
            sodipodi:cx="157.14285"/>
          <rect id="rect3324-26"
            style="fill-rule:evenodd;stroke:#000000;stroke-width:1.7359;fill:#00d2d5"
            ry="0"
            height="58.264"
            width="58.264"
            y="281.02"
            x="150.01"/>
          <path id="path3326-5"
            inkscape:connector-curvature="0"
            sodipodi:nodetypes="cccc"
            style="opacity:.5;stroke-opacity:.18257;fill-rule:evenodd;stroke:#000000;fill:#f0f0f0"
            d="m178.66 257.01c-29.13 0.00001-52.781 24.323-52.781 54.281 46.899-10.605 58.321-10.745 105.53 0 0.00001-29.958-23.62-54.281-52.75-54.281z"/>
        </g>
        <g id="g4131">
          <path id="path3343-96"
            sodipodi:rx="54.285713"
            sodipodi:ry="51.42857"
            style="fill-rule:evenodd;fill-opacity:.25098;filter:url(#filter3316-9);stroke:#000000;fill:#c1c1c1"
            sodipodi:type="arc"
            d="m211.43 266.65c0 28.403-24.305 51.429-54.286 51.429s-54.286-23.025-54.286-51.429c0-28.403 24.305-51.429 54.286-51.429s54.286 23.025 54.286 51.429z"
            transform="matrix(.99975 0 0 1.0553 142.9 28.757)"
            sodipodi:cy="266.64789"
            sodipodi:cx="157.14285"/>
          <path id="path3366-0"
            style="stroke-opacity:.18257;fill-rule:evenodd;stroke:#000000;fill:#00d2d5"
            sodipodi:type="star"
            d="m233 452.36-44.049 22.432-44.049 22.432 2.5981-49.363 2.5981-49.363 41.451 26.932z"
            sodipodi:r1="57.078892"
            inkscape:flatsided="false"
            transform="matrix(.70219 -.033524 .034618 0.68 158.88 10.548)"
            sodipodi:arg2="1.0997806"
            sodipodi:arg1="0.052583062"
            inkscape:randomized="0"
            sodipodi:cy="449.36218"
            sodipodi:cx="176"
            inkscape:rounded="0"
            sodipodi:r2="28.539446"
            sodipodi:sides="3"/>
          <path id="path3347-4"
            inkscape:connector-curvature="0"
            sodipodi:nodetypes="cccc"
            style="opacity:.5;stroke-opacity:.18257;fill-rule:evenodd;stroke:#000000;fill:#f0f0f0"
            d="m299.51 257.01c-29.13 0.00001-52.781 24.323-52.781 54.281 46.899-10.605 58.321-10.745 105.53 0 0.00001-29.958-23.62-54.281-52.75-54.281z"/>
        </g>
        <g id="g4124">
          <path id="path3375-0"
            sodipodi:rx="54.285713"
            sodipodi:ry="51.42857"
            style="fill-rule:evenodd;fill-opacity:.25098;filter:url(#filter3316-9);stroke:#000000;fill:#c1c1c1"
            sodipodi:type="arc"
            d="m211.43 266.65c0 28.403-24.305 51.429-54.286 51.429s-54.286-23.025-54.286-51.429c0-28.403 24.305-51.429 54.286-51.429s54.286 23.025 54.286 51.429z"
            transform="matrix(.99975 0 0 1.0553 260.9 28.758)"
            sodipodi:cy="266.64789"
            sodipodi:cx="157.14285"/>
          <g id="g3398-4" transform="matrix(0 1.3126 -1.3126 0 826.87 -510.57)">
            <path id="path3388-87"
              style="stroke-opacity:.18257;fill-rule:evenodd;stroke:#000000;fill:#00d2d5"
              sodipodi:type="star"
              sodipodi:sides="3"
              sodipodi:r1="112.00893"
              sodipodi:r2="56.004463"
              sodipodi:arg1="0.13432144"
              sodipodi:arg2="1.181519"
              transform="matrix(-.028218 -.20148 .20148 -.028218 543.17 382.34)"
              inkscape:randomized="0"
              sodipodi:cy="438.36218"
              sodipodi:cx="212"
              inkscape:rounded="0"
              inkscape:flatsided="false"
              d="m323 453.36-89.75 36.82-89.74 36.81 12.99-96.13l12.99-96.129 76.755 59.314z"/>
            <path id="path3390-0"
              style="stroke-opacity:.18257;fill-rule:evenodd;stroke:#000000;fill:#00d2d5"
              sodipodi:type="star"
              sodipodi:sides="3"
              sodipodi:r1="112.00893"
              sodipodi:r2="56.004463"
              sodipodi:arg1="0.13432144"
              sodipodi:arg2="1.181519"
              transform="matrix(-.028218 -.20148 .20148 -.028218 542.61 359.09)"
              inkscape:randomized="0"
              sodipodi:cy="438.36218"
              sodipodi:cx="212"
              inkscape:rounded="0"
              inkscape:flatsided="false"
              d="m323 453.36-89.75 36.82-89.74 36.81 12.99-96.13l12.99-96.129 76.755 59.314z"/>
          </g>
          <path id="path3379-86"
            inkscape:connector-curvature="0"
            sodipodi:nodetypes="cccc"
            style="opacity:.5;stroke-opacity:.18257;fill-rule:evenodd;stroke:#000000;fill:#f0f0f0"
            d="m417.51 257.01c-29.13 0.00001-52.781 24.323-52.781 54.281 46.899-10.605 58.321-10.745 105.53 0 0.00001-29.958-23.62-54.281-52.75-54.281z"/>
        </g>
        <g id="g4117">
          <path id="path3402-4"
            sodipodi:rx="54.285713"
            sodipodi:ry="51.42857"
            style="fill-rule:evenodd;fill-opacity:.25098;filter:url(#filter3316-9);stroke:#000000;fill:#c1c1c1"
            sodipodi:type="arc"
            d="m211.43 266.65c0 28.403-24.305 51.429-54.286 51.429s-54.286-23.025-54.286-51.429c0-28.403 24.305-51.429 54.286-51.429s54.286 23.025 54.286 51.429z"
            transform="matrix(.99975 0 0 1.0553 381.9 28.758)"
            sodipodi:cy="266.64789"
            sodipodi:cx="157.14285"/>
          <g id="g3406-7" transform="matrix(0 -1.3126 1.3126 0 130.13 1130.9)">
            <path id="path3408-9"
              style="stroke-opacity:.18257;fill-rule:evenodd;stroke:#000000;fill:#00d2d5"
              sodipodi:type="star"
              sodipodi:sides="3"
              sodipodi:r1="112.00893"
              sodipodi:r2="56.004463"
              sodipodi:arg1="0.13432144"
              sodipodi:arg2="1.181519"
              transform="matrix(-.028218 -.20148 .20148 -.028218 543.17 382.34)"
              inkscape:randomized="0"
              sodipodi:cy="438.36218"
              sodipodi:cx="212"
              inkscape:rounded="0"
              inkscape:flatsided="false"
              d="m323 453.36-89.75 36.82-89.74 36.81 12.99-96.13l12.99-96.129 76.755 59.314z"/>
            <path id="path3410-3"
              style="stroke-opacity:.18257;fill-rule:evenodd;stroke:#000000;fill:#00d2d5"
              sodipodi:type="star"
              sodipodi:sides="3"
              sodipodi:r1="112.00893"
              sodipodi:r2="56.004463"
              sodipodi:arg1="0.13432144"
              sodipodi:arg2="1.181519"
              transform="matrix(-.028218 -.20148 .20148 -.028218 542.61 359.09)"
              inkscape:randomized="0"
              sodipodi:cy="438.36218"
              sodipodi:cx="212"
              inkscape:rounded="0"
              inkscape:flatsided="false"
              d="m323 453.36-89.75 36.82-89.74 36.81 12.99-96.13l12.99-96.129 76.755 59.314z"/>
          </g>
          <path id="path3404-9"
            inkscape:connector-curvature="0"
            sodipodi:nodetypes="cccc"
            style="opacity:.5;stroke-opacity:.18257;fill-rule:evenodd;stroke:#000000;fill:#f0f0f0"
            d="m538.51 257.01c-29.13 0.00001-52.781 24.323-52.781 54.281 46.899-10.605 58.321-10.745 105.53 0 0.00001-29.958-23.62-54.281-52.75-54.281z"/>
        </g>
      </g>


      <g id="g4022_pause_disabled">
        <g id="g3982">
          <g id="g3919">
            <path id="path2383-4"
              sodipodi:rx="54.285713"
              sodipodi:ry="51.42857"
            style="fill-rule:evenodd;fill-opacity:.25098;filter:url(#filter3316-9);stroke:#000000;fill:#c1c1c1"
              sodipodi:type="arc"
              d="m211.43 266.65a54.286 51.429 0 1 1 -108.57 0 54.286 51.429 0 1 1 108.57 0z"
              transform="matrix(.99975 0 0 1.0553 -97.961 24.865)"
              sodipodi:cy="266.64789"
              sodipodi:cx="157.14285"/>
            <rect id="rect3237-2"
              style="stroke-opacity:.18257;fill-rule:evenodd;stroke:#000000;fill:#2c2c2c"
              ry="0"
              height="56.783"
              width="17.211"
              y="277.86"
              x="66.537"/>
            <rect id="rect3239-2"
              style="stroke-opacity:.18257;fill-rule:evenodd;stroke:#000000;fill:#2c2c2c"
              ry="0"
              height="56.783"
              width="17.211"
              y="277.86"
              x="34.537"/>
            <path id="path3245-6"
              style="opacity:.5;stroke-opacity:.18257;fill-rule:evenodd;stroke:#000000;fill:#f0f0f0"
              sodipodi:nodetypes="cccc"
              inkscape:connector-curvature="0"
              d="m58.656 253.12c-29.13 0.00001-52.781 24.323-52.781 54.281 46.899-10.605 58.321-10.745 105.53 0 0.00001-29.958-23.62-54.281-52.75-54.281z"/>
          </g>
          <path id="path2383-4-6"
            sodipodi:rx="54.285713"
            sodipodi:ry="51.42857"
            style="filter:url(#filter3316-1-1);fill-rule:evenodd;fill:#f0f0f0;fill-opacity:.51765"
            sodipodi:type="arc"
            d="m211.43 266.65a54.286 51.429 0 1 1 -108.57 0 54.286 51.429 0 1 1 108.57 0z"
            transform="matrix(.99975 0 0 1.0553 -97.961 24.865)"
            sodipodi:cy="266.64789"
            sodipodi:cx="157.14285"/>
        </g>
        <g id="g3990_stop_disabled">
          <g id="g3336-4" transform="translate(-104.86 33.893)">
            <path id="path3320-1"
              sodipodi:rx="54.285713"
              sodipodi:ry="51.42857"
              style="fill-rule:evenodd;fill-opacity:.25098;filter:url(#filter3316-9);stroke:#000000;fill:#c1c1c1"
              sodipodi:type="arc"
              d="m211.43 266.65c0 28.403-24.305 51.429-54.286 51.429s-54.286-23.025-54.286-51.429c0-28.403 24.305-51.429 54.286-51.429s54.286 23.025 54.286 51.429z"
              transform="matrix(.99975 0 0 1.0553 126.9 -9.028)"
              sodipodi:cy="266.64789"
              sodipodi:cx="157.14285"/>
            <rect id="rect3324-2"
              style="stroke-opacity:.18257;fill-rule:evenodd;stroke:#000000;fill:#2c2c2c"
              ry="0"
              height="58.264"
              width="58.264"
              y="243.23"
              x="254.87"/>
            <path id="path3326-8"
              style="opacity:.5;stroke-opacity:.18257;fill-rule:evenodd;stroke:#000000;fill:#f0f0f0"
              sodipodi:nodetypes="cccc"
              inkscape:connector-curvature="0"
              d="m283.51 219.23c-29.13 0.00001-52.781 24.323-52.781 54.281 46.899-10.605 58.321-10.745 105.53 0 0.00001-29.958-23.62-54.281-52.75-54.281z"/>
          </g>
          <path id="path2383-4-6-4"
            sodipodi:rx="54.285713"
            sodipodi:ry="51.42857"
            style="filter:url(#filter3316-1-1-1);fill-rule:evenodd;fill:#f0f0f0;fill-opacity:.51765"
            sodipodi:type="arc"
            d="m211.43 266.65a54.286 51.429 0 1 1 -108.57 0 54.286 51.429 0 1 1 108.57 0z"
            transform="matrix(.99975 0 0 1.0553 22.039 24.865)"
            sodipodi:cy="266.64789"
            sodipodi:cx="157.14285"/>
        </g>
        <g id="g3997_play_disabled">
          <g id="g3368-8" transform="translate(-105 31.893)">
            <path id="path3343-9"
              sodipodi:rx="54.285713"
              sodipodi:ry="51.42857"
              style="fill-rule:evenodd;fill-opacity:.25098;filter:url(#filter3316-9);stroke:#000000;fill:#c1c1c1"
              sodipodi:type="arc"
              d="m211.43 266.65c0 28.403-24.305 51.429-54.286 51.429s-54.286-23.025-54.286-51.429c0-28.403 24.305-51.429 54.286-51.429s54.286 23.025 54.286 51.429z"
              transform="matrix(.99975 0 0 1.0553 247.9 -7.028)"
              sodipodi:cy="266.64789"
              sodipodi:cx="157.14285"/>
            <path id="path3366-2"
              style="stroke-opacity:.18257;fill-rule:evenodd;stroke:#000000;fill:#2c2c2c"
              sodipodi:type="star"
              sodipodi:sides="3"
              sodipodi:r1="57.078892"
              sodipodi:r2="28.539446"
              sodipodi:arg1="0.052583062"
              sodipodi:arg2="1.0997806"
              transform="matrix(.70219 -.033524 .034618 0.68 263.88 -25.238)"
              inkscape:randomized="0"
              sodipodi:cy="449.36218"
              sodipodi:cx="176"
              inkscape:rounded="0"
              inkscape:flatsided="false"
              d="m233 452.36-44.049 22.432-44.049 22.432 2.5981-49.363 2.5981-49.363 41.451 26.932z"/>
            <path id="path3347-8"
              style="opacity:.5;stroke-opacity:.18257;fill-rule:evenodd;stroke:#000000;fill:#f0f0f0"
              sodipodi:nodetypes="cccc"
              inkscape:connector-curvature="0"
              d="m404.51 221.23c-29.13 0.00001-52.781 24.323-52.781 54.281 46.899-10.605 58.321-10.745 105.53 0 0.00001-29.958-23.62-54.281-52.75-54.281z"/>
          </g>
          <path id="path2383-4-6-9"
            sodipodi:rx="54.285713"
            sodipodi:ry="51.42857"
            style="filter:url(#filter3316-1-1-15);fill-rule:evenodd;fill:#f0f0f0;fill-opacity:.51765"
            sodipodi:type="arc"
            d="m211.43 266.65a54.286 51.429 0 1 1 -108.57 0 54.286 51.429 0 1 1 108.57 0z"
            transform="matrix(.99975 0 0 1.0553 142.9 24.865)"
            sodipodi:cy="266.64789"
            sodipodi:cx="157.14285"/>
        </g>
        <g id="g4004_ff_disabled">
          <g id="g3486-8" transform="translate(-4 234.68)">
            <path id="path3375-8"
              sodipodi:rx="54.285713"
              sodipodi:ry="51.42857"
            style="fill-rule:evenodd;fill-opacity:.25098;filter:url(#filter3316-9);stroke:#000000;fill:#c1c1c1"
              sodipodi:type="arc"
              d="m211.43 266.65c0 28.403-24.305 51.429-54.286 51.429s-54.286-23.025-54.286-51.429c0-28.403 24.305-51.429 54.286-51.429s54.286 23.025 54.286 51.429z"
              transform="matrix(.99975 0 0 1.0553 264.9 -209.81)"
              sodipodi:cy="266.64789"
              sodipodi:cx="157.14285"/>
            <g id="g3398-6" transform="matrix(0 1.3126 -1.3126 0 830.87 -749.14)">
              <path id="path3388-8"
              style="stroke-opacity:.18257;fill-rule:evenodd;stroke:#000000;fill:#2c2c2c"
                sodipodi:type="star"
                d="m323 453.36-89.75 36.82-89.74 36.81 12.99-96.13l12.99-96.129 76.755 59.314z"
                sodipodi:r1="112.00893"
                inkscape:flatsided="false"
                transform="matrix(-.028218 -.20148 .20148 -.028218 543.17 382.34)"
                sodipodi:arg2="1.181519"
                sodipodi:arg1="0.13432144"
                inkscape:randomized="0"
                sodipodi:cy="438.36218"
                sodipodi:cx="212"
                inkscape:rounded="0"
                sodipodi:r2="56.004463"
                sodipodi:sides="3"/>
              <path id="path3390-3"
              style="stroke-opacity:.18257;fill-rule:evenodd;stroke:#000000;fill:#2c2c2c"
                sodipodi:type="star"
                d="m323 453.36-89.75 36.82-89.74 36.81 12.99-96.13l12.99-96.129 76.755 59.314z"
                sodipodi:r1="112.00893"
                inkscape:flatsided="false"
                transform="matrix(-.028218 -.20148 .20148 -.028218 542.61 359.09)"
                sodipodi:arg2="1.181519"
                sodipodi:arg1="0.13432144"
                inkscape:randomized="0"
                sodipodi:cy="438.36218"
                sodipodi:cx="212"
                inkscape:rounded="0"
                sodipodi:r2="56.004463"
                sodipodi:sides="3"/>
            </g>
            <path id="path3379-8"
              style="opacity:.5;stroke-opacity:.18257;fill-rule:evenodd;stroke:#000000;fill:#f0f0f0"
              sodipodi:nodetypes="cccc"
              inkscape:connector-curvature="0"
              d="m421.51 18.442c-29.13 0.00001-52.781 24.323-52.781 54.281 46.899-10.605 58.321-10.745 105.53 0 0.00001-29.958-23.62-54.281-52.75-54.281z"/>
          </g>
          <path id="path2383-4-6-8"
            sodipodi:rx="54.285713"
            sodipodi:ry="51.42857"
            style="filter:url(#filter3316-1-1-8);fill-rule:evenodd;fill:#f0f0f0;fill-opacity:.51765"
            sodipodi:type="arc"
            d="m211.43 266.65a54.286 51.429 0 1 1 -108.57 0 54.286 51.429 0 1 1 108.57 0z"
            transform="matrix(.99975 0 0 1.0553 260.9 24.865)"
            sodipodi:cy="266.64789"
            sodipodi:cx="157.14285"/>
        </g>
        <g id="g4013_rewind_disabled">
          <g id="g3493-3" transform="translate(-6 231.89)">
            <path id="path3402-3"
              sodipodi:rx="54.285713"
              sodipodi:ry="51.42857"
            style="fill-rule:evenodd;fill-opacity:.25098;filter:url(#filter3316-9);stroke:#000000;fill:#c1c1c1"
              sodipodi:type="arc"
              d="m211.43 266.65c0 28.403-24.305 51.429-54.286 51.429s-54.286-23.025-54.286-51.429c0-28.403 24.305-51.429 54.286-51.429s54.286 23.025 54.286 51.429z"
              transform="matrix(.99975 0 0 1.0553 387.9 -207.03)"
              sodipodi:cy="266.64789"
              sodipodi:cx="157.14285"
            />
            <g id="g3406-3" transform="matrix(0 -1.3126 1.3126 0 136.13 895.08)">
              <path id="path3408-8"
              style="stroke-opacity:.18257;fill-rule:evenodd;stroke:#000000;fill:#2c2c2c"
                sodipodi:type="star"
                d="m323 453.36-89.75 36.82-89.74 36.81 12.99-96.13l12.99-96.129 76.755 59.314z"
                sodipodi:r1="112.00893"
                inkscape:flatsided="false"
                transform="matrix(-.028218 -.20148 .20148 -.028218 543.17 382.34)"
                sodipodi:arg2="1.181519"
                sodipodi:arg1="0.13432144"
                inkscape:randomized="0"
                sodipodi:cy="438.36218"
                sodipodi:cx="212"
                inkscape:rounded="0"
                sodipodi:r2="56.004463"
                sodipodi:sides="3"/>
              <path id="path3410-0"
              style="stroke-opacity:.18257;fill-rule:evenodd;stroke:#000000;fill:#2c2c2c"
                sodipodi:type="star"
                d="m323 453.36-89.75 36.82-89.74 36.81 12.99-96.13l12.99-96.129 76.755 59.314z"
                sodipodi:r1="112.00893"
                inkscape:flatsided="false"
                transform="matrix(-.028218 -.20148 .20148 -.028218 542.61 359.09)"
                sodipodi:arg2="1.181519"
                sodipodi:arg1="0.13432144"
                inkscape:randomized="0"
                sodipodi:cy="438.36218"
                sodipodi:cx="212"
                inkscape:rounded="0"
                sodipodi:r2="56.004463"
                sodipodi:sides="3"/>
            </g>
            <path id="path3404-4"
              style="opacity:.5;stroke-opacity:.18257;fill-rule:evenodd;stroke:#000000;fill:#f0f0f0"
              sodipodi:nodetypes="cccc"
              inkscape:connector-curvature="0"
              d="m544.51 21.227c-29.13 0.00001-52.781 24.323-52.781 54.281 46.899-10.605 58.321-10.745 105.53 0 0.00001-29.958-23.62-54.281-52.75-54.281z"/>
          </g>
          <path id="path2383-4-6-2"
            sodipodi:rx="54.285713"
            sodipodi:ry="51.42857"
            style="filter:url(#filter3316-1-1-5);fill-rule:evenodd;fill:#f0f0f0;fill-opacity:.51765"
            sodipodi:type="arc"
            d="m211.43 266.65a54.286 51.429 0 1 1 -108.57 0 54.286 51.429 0 1 1 108.57 0z"
            transform="matrix(.99975 0 0 1.0553 381.9 24.865)"
            sodipodi:cy="266.64789"
            sodipodi:cx="157.14285"
          />
        </g>
      </g>
    </g>
  </g>
  <metadata>
    <rdf:RDF>
      <cc:Work>
        <dc:format>image/svg+xml</dc:format>
        <dc:type rdf:resource="http://purl.org/dc/dcmitype/StillImage"/>
        <cc:license rdf:resource="http://creativecommons.org/licenses/publicdomain/"/>
        <dc:publisher>
          <cc:Agent rdf:about="http://openclipart.org/">
            <dc:title>Openclipart</dc:title>
          </cc:Agent>
        </dc:publisher>
        <dc:title>Glossy media player {normal active, focus} buttons</dc:title>
        <dc:date>2011-02-03T11:08:08</dc:date>
        <dc:description>See them in action at: http://voinici.ceata.org/~tct/cache_sim-ceata-svn/cache_sim.html</dc:description>
        <dc:source>https://openclipart.org/detail/116929/glossy-media-player-normal-active-focus-buttons-by-tct</dc:source>
        <dc:creator>
          <cc:Agent>
            <dc:title>tct</dc:title>
          </cc:Agent>
        </dc:creator>
        <dc:subject>
          <rdf:Bag>
            <rdf:li>button</rdf:li>
            <rdf:li>player</rdf:li>
          </rdf:Bag>
        </dc:subject>
      </cc:Work>
      <cc:License rdf:about="http://creativecommons.org/licenses/publicdomain/">
        <cc:permits rdf:resource="http://creativecommons.org/ns#Reproduction"/>
        <cc:permits rdf:resource="http://creativecommons.org/ns#Distribution"/>
        <cc:permits rdf:resource="http://creativecommons.org/ns#DerivativeWorks"/>
      </cc:License>
    </rdf:RDF>
  </metadata>
</svg>
