<?xml version="1.0" encoding="UTF-8" standalone="no"?>
<!-- Created with Inkscape (http://www.inkscape.org/) -->

<svg
   xmlns:dc="http://purl.org/dc/elements/1.1/"
   xmlns:cc="http://creativecommons.org/ns#"
   xmlns:rdf="http://www.w3.org/1999/02/22-rdf-syntax-ns#"
   xmlns:svg="http://www.w3.org/2000/svg"
   xmlns="http://www.w3.org/2000/svg"
   xmlns:sodipodi="http://sodipodi.sourceforge.net/DTD/sodipodi-0.dtd"
   xmlns:inkscape="http://www.inkscape.org/namespaces/inkscape"
   id="svg2"
   sodipodi:docname="buttons-experiment7.svg"
   inkscape:export-filename="/home/tct/Desktop/player_bugmenot_tct.png"
   viewBox="0 0 830 350"
   sodipodi:version="0.32"
   inkscape:export-xdpi="31.91"
   version="1.0"
   inkscape:output_extension="org.inkscape.output.svg.inkscape"
   inkscape:export-ydpi="31.91"
   inkscape:version="0.91 r13725"
   width="830"
   height="350">
  <defs
     id="defs4">
    <filter
       id="filter3316-9"
       inkscape:collect="always"
       style="color-interpolation-filters:sRGB">
      <feGaussianBlur
         id="feGaussianBlur3318-0"
         stdDeviation="0.58671616"
         inkscape:collect="always" />
    </filter>
    <filter
       id="filter3316-1-1"
       inkscape:collect="always"
       style="color-interpolation-filters:sRGB">
      <feGaussianBlur
         id="feGaussianBlur3318-4-9"
         stdDeviation="0.58671616"
         inkscape:collect="always" />
    </filter>
    <filter
       id="filter3316-1-1-1"
       inkscape:collect="always"
       style="color-interpolation-filters:sRGB">
      <feGaussianBlur
         id="feGaussianBlur3318-4-9-5"
         stdDeviation="0.58671616"
         inkscape:collect="always" />
    </filter>
    <filter
       id="filter3316-1-1-15"
       inkscape:collect="always"
       style="color-interpolation-filters:sRGB">
      <feGaussianBlur
         id="feGaussianBlur3318-4-9-54"
         stdDeviation="0.58671616"
         inkscape:collect="always" />
    </filter>
    <filter
       id="filter3316-1-1-8"
       inkscape:collect="always"
       style="color-interpolation-filters:sRGB">
      <feGaussianBlur
         id="feGaussianBlur3318-4-9-3"
         stdDeviation="0.58671616"
         inkscape:collect="always" />
    </filter>
    <filter
       id="filter3316-1-1-5"
       inkscape:collect="always"
       style="color-interpolation-filters:sRGB">
      <feGaussianBlur
         id="feGaussianBlur3318-4-9-2"
         stdDeviation="0.58671616"
         inkscape:collect="always" />
    </filter>
    <filter
       id="filter3316-9-3"
       inkscape:collect="always"
       style="color-interpolation-filters:sRGB">
      <feGaussianBlur
         id="feGaussianBlur3318-0-5"
         stdDeviation="0.58671616"
         inkscape:collect="always" />
    </filter>
    <filter
       id="filter3316-9-0"
       inkscape:collect="always"
       style="color-interpolation-filters:sRGB">
      <feGaussianBlur
         id="feGaussianBlur3318-0-9"
         stdDeviation="0.58671616"
         inkscape:collect="always" />
    </filter>
    <filter
       id="filter3316-1-1-5-2"
       inkscape:collect="always"
       style="color-interpolation-filters:sRGB">
      <feGaussianBlur
         id="feGaussianBlur3318-4-9-2-3"
         stdDeviation="0.58671616"
         inkscape:collect="always" />
    </filter>
    <filter
       id="filter3316-9-36"
       inkscape:collect="always"
       style="color-interpolation-filters:sRGB">
      <feGaussianBlur
         id="feGaussianBlur3318-0-7"
         stdDeviation="0.58671616"
         inkscape:collect="always" />
    </filter>
    <filter
       id="filter3316-9-7"
       inkscape:collect="always"
       style="color-interpolation-filters:sRGB">
      <feGaussianBlur
         id="feGaussianBlur3318-0-0"
         stdDeviation="0.58671616"
         inkscape:collect="always" />
    </filter>
    <filter
       id="filter3316-1-1-5-2-0"
       inkscape:collect="always"
       style="color-interpolation-filters:sRGB">
      <feGaussianBlur
         id="feGaussianBlur3318-4-9-2-3-2"
         stdDeviation="0.58671616"
         inkscape:collect="always" />
    </filter>
  </defs>
  <sodipodi:namedview
     id="base"
     bordercolor="#666666"
     inkscape:pageshadow="2"
     inkscape:window-y="0"
     fit-margin-left="0"
     pagecolor="#ffffff"
     inkscape:window-height="835"
     inkscape:window-maximized="1"
     inkscape:zoom="1.2650602"
     inkscape:window-x="0"
     showgrid="false"
     borderopacity="1.0"
     inkscape:current-layer="g4059"
     inkscape:cx="415"
     inkscape:cy="175"
     fit-margin-top="0"
     fit-margin-right="0"
     fit-margin-bottom="0"
     inkscape:window-width="1440"
     inkscape:pageopacity="0.0"
     inkscape:document-units="px" />
  <g
     id="layer1"
     inkscape:label="Ebene 1"
     inkscape:groupmode="layer"
     transform="translate(-2.9497,-18.076)">
    <g
       id="g4059">
      <g
         transform="translate(-104,-197.93)"
         id="g3356_pause_enabled">
        <ellipse
           ry="51.42857"
           rx="54.285713"
           cy="266.64789"
           cx="157.14285"
           transform="matrix(0.99975,0,0,1.0553,6.0393,-9.0992)"
           style="fill:#c1c1c1;fill-opacity:0.15097997;fill-rule:evenodd;stroke:#000000;filter:url(#filter3316-9)"
           id="path2383_pause_enabled" />
        <rect
           x="170.53999"
           y="243.89999"
           width="17.211"
           height="56.783001"
           ry="0"
           style="fill:#080808;fill-rule:evenodd;stroke:#000000;stroke-width:0.5"
           id="rect3237" />
        <rect
           x="138.53999"
           y="243.89999"
           width="17.211"
           height="56.783001"
           ry="0"
           style="fill:#080808;fill-rule:evenodd;stroke:#000000;stroke-width:0.5"
           id="rect3239" />
        <path
           inkscape:connector-curvature="0"
           style="opacity:0.3;fill:#ffffff;fill-rule:evenodd;stroke:#000000;stroke-opacity:0.10256998"
           sodipodi:nodetypes="cccc"
           d="m 162.66,219.16 c -29.13,1e-5 -52.781,24.323 -52.781,54.281 46.899,-10.605 58.321,-10.745 105.53,0 1e-5,-29.958 -23.62,-54.281 -52.75,-54.281 z"
           id="path3245" />
      </g>
      <g transform="translate(-104.86,-198)" id="g3336_stop_enabled">
        <ellipse
           ry="51.42857"
           rx="54.285713"
           cy="266.64789"
           cx="157.14285"
           transform="matrix(0.99975,0,0,1.0553,126.9,-9.028)"
           style="fill:#c1c1c1;fill-opacity:0.15097997;fill-rule:evenodd;stroke:#000000;filter:url(#filter3316-9)"
           id="path3320" />
        <rect
           x="254.87"
           y="243.23"
           width="58.264"
           height="58.264"
           ry="0"
           style="fill:#080808;fill-rule:evenodd;stroke:#000000;stroke-width:0.5"
           id="rect3324" />
        <path
           inkscape:connector-curvature="0"
           style="opacity:0.3;fill:#ffffff;fill-rule:evenodd;stroke:#000000;stroke-opacity:0.10256998"
           sodipodi:nodetypes="cccc"
           d="m 283.51,219.23 c -29.13,1e-5 -52.781,24.323 -52.781,54.281 46.899,-10.605 58.321,-10.745 105.53,0 10e-6,-29.958 -23.62,-54.281 -52.75,-54.281 z"
           id="path3326" />
      </g>
      <g
         transform="translate(-105,-200)"
         id="g3368_play_enabled">
        <ellipse
           ry="51.42857"
           rx="54.285713"
           cy="266.64789"
           cx="157.14285"
           transform="matrix(0.99975,0,0,1.0553,247.9,-7.028)"
           style="fill:#c1c1c1;fill-opacity:0.15097997;fill-rule:evenodd;stroke:#000000;filter:url(#filter3316-9)"
           id="path3343" />
        <path
           sodipodi:sides="3"
           sodipodi:r2="28.539446"
           inkscape:rounded="0"
           sodipodi:cx="176"
           sodipodi:cy="449.36218"
           inkscape:randomized="0"
           sodipodi:arg1="0.052583062"
           sodipodi:arg2="1.0997806"
           transform="matrix(0.70219,-0.033524,0.034618,0.68,263.88,-25.238)"
           inkscape:flatsided="false"
           sodipodi:r1="57.078892"
           d="m 233,452.36218 -44.04904,22.43173 -44.04904,22.43172 2.59808,-49.36345 2.59808,-49.36344 41.45096,26.93172 z"
           sodipodi:type="star"
           style="fill:#080808;fill-rule:evenodd;stroke:#000000;stroke-opacity:0.10256998"
           id="path3366" />
        <path
           inkscape:connector-curvature="0"
           style="opacity:0.3;fill:#ffffff;fill-rule:evenodd;stroke:#000000;stroke-opacity:0.10256998"
           sodipodi:nodetypes="cccc"
           d="m 404.51,221.23 c -29.13,1e-5 -52.781,24.323 -52.781,54.281 46.899,-10.605 58.321,-10.745 105.53,0 10e-6,-29.958 -23.62,-54.281 -52.75,-54.281 z"
           id="path3347" />
      </g>
      <ellipse
         id="path3375"
         style="fill:#c1c1c1;fill-opacity:0.15097997;fill-rule:evenodd;stroke:#000000;filter:url(#filter3316-9)"
         transform="matrix(0.99975,0,0,1.0553,260.9,-207.0245)"
         cx="157.14285"
         cy="266.64789"
         rx="54.285713"
         ry="51.42857" />
      <path
         d="M 323,453.36218 233.25481,490.17659 143.50962,526.991 156.5,430.86218 l 12.99038,-96.12882 76.75481,59.31441 z"
         inkscape:flatsided="false"
         inkscape:rounded="0"
         sodipodi:cx="212"
         sodipodi:cy="438.36218"
         inkscape:randomized="0"
         transform="matrix(0.26446265,-0.03703895,0.03703895,0.26446265,325.01052,-33.389558)"
         sodipodi:arg2="1.181519"
         sodipodi:arg1="0.13432144"
         sodipodi:r2="56.004463"
         sodipodi:r1="112.00893"
         sodipodi:sides="3"
         sodipodi:type="star"
         style="fill:#080808;fill-rule:evenodd;stroke:#000000;stroke-opacity:0.10256998"
         id="path3388" />
      <path
         d="M 323,453.36218 233.25481,490.17659 143.50962,526.991 156.5,430.86218 l 12.99038,-96.12882 76.75481,59.31441 z"
         inkscape:flatsided="false"
         inkscape:rounded="0"
         sodipodi:cx="212"
         sodipodi:cy="438.36218"
         inkscape:randomized="0"
         transform="matrix(0.26446265,-0.03703895,0.03703895,0.26446265,355.52847,-34.124614)"
         sodipodi:arg2="1.181519"
         sodipodi:arg1="0.13432144"
         sodipodi:r2="56.004463"
         sodipodi:r1="112.00893"
         sodipodi:sides="3"
         sodipodi:type="star"
         style="fill:#080808;fill-rule:evenodd;stroke:#000000;stroke-opacity:0.10256998"
         id="path3390" />
      <path
         id="path3379"
         d="m 417.51,21.2275 c -29.13,10e-6 -52.781,24.323 -52.781,54.281 46.899,-10.605 58.321,-10.745 105.53,0 10e-6,-29.958 -23.62,-54.281 -52.75,-54.281 z"
         sodipodi:nodetypes="cccc"
         style="opacity:0.3;fill:#f0f0f0;fill-rule:evenodd;stroke:#000000;stroke-opacity:0.10256998"
         inkscape:connector-curvature="0" />
      <g
         transform="translate(-6,6.4373e-6)"
         id="g3493_rewind_enabled">
        <ellipse
           ry="51.42857"
           rx="54.285713"
           cy="266.64789"
           cx="157.14285"
           transform="matrix(0.99975,0,0,1.0553,387.9,-207.03)"
           style="fill:#c1c1c1;fill-opacity:0.15097997;fill-rule:evenodd;stroke:#000000;filter:url(#filter3316-9)"
           id="path3402" />
        <g
           transform="matrix(0,-1.3126,1.3126,0,136.13,895.08)"
           id="g3406">
          <path
             d="M 323,453.36218 233.25481,490.17659 143.50962,526.991 156.5,430.86218 l 12.99038,-96.12882 76.75481,59.31441 z"
             inkscape:flatsided="false"
             inkscape:rounded="0"
             sodipodi:cx="212"
             sodipodi:cy="438.36218"
             inkscape:randomized="0"
             transform="matrix(-0.028218,-0.20148,0.20148,-0.028218,543.17,382.34)"
             sodipodi:arg2="1.181519"
             sodipodi:arg1="0.13432144"
             sodipodi:r2="56.004463"
             sodipodi:r1="112.00893"
             sodipodi:sides="3"
             sodipodi:type="star"
             style="fill:#080808;fill-rule:evenodd;stroke:#000000;stroke-opacity:0.10256998"
             id="path3408" />
          <path
             d="M 323,453.36218 233.25481,490.17659 143.50962,526.991 156.5,430.86218 l 12.99038,-96.12882 76.75481,59.31441 z"
             inkscape:flatsided="false"
             inkscape:rounded="0"
             sodipodi:cx="212"
             sodipodi:cy="438.36218"
             inkscape:randomized="0"
             transform="matrix(-0.028218,-0.20148,0.20148,-0.028218,542.61,359.09)"
             sodipodi:arg2="1.181519"
             sodipodi:arg1="0.13432144"
             sodipodi:r2="56.004463"
             sodipodi:r1="112.00893"
             sodipodi:sides="3"
             sodipodi:type="star"
             style="fill:#080808;fill-rule:evenodd;stroke:#000000;stroke-opacity:0.10256998"
             id="path3410" />
        </g>
        <path
           inkscape:connector-curvature="0"
           style="opacity:0.3;fill:#f0f0f0;fill-rule:evenodd;stroke:#000000;stroke-opacity:0.10256998"
           sodipodi:nodetypes="cccc"
           d="m 544.51,21.227 c -29.13,10e-6 -52.781,24.323 -52.781,54.281 46.899,-10.605 58.321,-10.745 105.53,0 10e-6,-29.958 -23.62,-54.281 -52.75,-54.281 z"
           id="path3404" />
      </g>
      <!-- custom step forward button in the same style -->
      <g
         id="g4233_step_backward_enabled"
         transform="matrix(-1,0,0,1,1436.2857,0.07203505)">
        <ellipse
           id="path2383"
           style="fill:#c1c1c1;fill-opacity:0.15097997;fill-rule:evenodd;stroke:#000000;filter:url(#filter3316-9)"
           transform="matrix(0.99975,0,0,1.0553,502.0393,-207.02999)"
           cx="157.14285"
           cy="266.64789"
           rx="54.285713"
           ry="51.42857" />
        <g
           transform="translate(-0.25864596,0.07203505)"
           id="g3804">
          <rect
             x="673.2066"
             y="45.899994"
             width="17.211"
             height="56.783001"
             ry="0"
             style="fill:#080808;fill-rule:evenodd;stroke:#000000;stroke-width:0.5"
             id="rect51" />
          <path
             d="M 323,453.36218 233.25481,490.17659 143.50962,526.991 156.5,430.86218 l 12.99038,-96.12882 76.75481,59.31441 z"
             inkscape:flatsided="false"
             inkscape:rounded="0"
             sodipodi:cx="212"
             sodipodi:cy="438.36218"
             inkscape:randomized="0"
             transform="matrix(0.26446265,-0.03703895,0.03703895,0.26446265,570.83231,-33.859509)"
             sodipodi:arg2="1.181519"
             sodipodi:arg1="0.13432144"
             sodipodi:r2="56.004463"
             sodipodi:r1="112.00893"
             sodipodi:sides="3"
             sodipodi:type="star"
             style="fill:#080808;fill-rule:evenodd;stroke:#000000;stroke-opacity:0.10256998"
             id="path3388-3" />
        </g>
        <path
           id="path53"
           d="m 658.66,21.229206 c -29.13,10e-6 -52.781,24.323 -52.781,54.281 46.899,-10.605 58.321,-10.745 105.53,0 10e-6,-29.958 -23.62,-54.281 -52.75,-54.281 z"
           sodipodi:nodetypes="cccc"
           style="opacity:0.3;fill:#ffffff;fill-rule:evenodd;stroke:#000000;stroke-opacity:0.10256998"
           inkscape:connector-curvature="0" />
      </g>
      <!-- end of custom button -->
      <!-- custom step backwardbutton in the same style -->
      <g
         id="g4233_step_forward_enabled">
        <ellipse
           id="ellipse55"
           style="fill:#c1c1c1;fill-opacity:0.15097997;fill-rule:evenodd;stroke:#000000;filter:url(#filter3316-9)"
           transform="matrix(0.99975,0,0,1.0553,502.0393,-207.02999)"
           cx="157.14285"
           cy="266.64789"
           rx="54.285713"
           ry="51.42857" />
        <g
           transform="translate(-0.25864596,0.07203505)"
           id="g57">
          <rect
             x="673.2066"
             y="45.899994"
             width="17.211"
             height="56.783001"
             ry="0"
             style="fill:#080808;fill-rule:evenodd;stroke:#000000;stroke-width:0.5"
             id="rect59" />
          <path
             d="M 323,453.36218 233.25481,490.17659 143.50962,526.991 156.5,430.86218 l 12.99038,-96.12882 76.75481,59.31441 z"
             inkscape:flatsided="false"
             inkscape:rounded="0"
             sodipodi:cx="212"
             sodipodi:cy="438.36218"
             inkscape:randomized="0"
             transform="matrix(0.26446265,-0.03703895,0.03703895,0.26446265,570.83231,-33.859509)"
             sodipodi:arg2="1.181519"
             sodipodi:arg1="0.13432144"
             sodipodi:r2="56.004463"
             sodipodi:r1="112.00893"
             sodipodi:sides="3"
             sodipodi:type="star"
             style="fill:#080808;fill-rule:evenodd;stroke:#000000;stroke-opacity:0.10256998"
             id="path61" />
        </g>
        <path
           id="path63"
           d="m 658.66,21.229206 c -29.13,10e-6 -52.781,24.323 -52.781,54.281 46.899,-10.605 58.321,-10.745 105.53,0 10e-6,-29.958 -23.62,-54.281 -52.75,-54.281 z"
           sodipodi:nodetypes="cccc"
           style="opacity:0.3;fill:#ffffff;fill-rule:evenodd;stroke:#000000;stroke-opacity:0.10256998"
           inkscape:connector-curvature="0" />
      </g>
      <!-- end of custom button -->
      <g
         id="g56_stop_active"
         transform="translate(0,-115.15)">
        <g
           id="g4141_pause_active">
          <ellipse
             id="path2383-3"
             style="fill:#c1c1c1;fill-opacity:0.15097997;fill-rule:evenodd;stroke:#000000;filter:url(#filter3316-9)"
             transform="matrix(0.99975,0,0,1.0553,-97.961,28.758)"
             cx="157.14285"
             cy="266.64789"
             rx="54.285713"
             ry="51.42857" />
          <rect
             id="rect3237-7"
             style="fill:#00d2d5;fill-rule:evenodd;stroke:#000000;stroke-width:0.5"
             ry="0"
             height="56.783001"
             width="17.211"
             y="281.76001"
             x="66.537003" />
          <rect
             id="rect3239-3"
             style="fill:#00d2d5;fill-rule:evenodd;stroke:#000000;stroke-width:0.5"
             ry="0"
             height="56.783001"
             width="17.211"
             y="281.76001"
             x="34.536999" />
          <path
             id="path3245-2"
             inkscape:connector-curvature="0"
             sodipodi:nodetypes="cccc"
             style="opacity:0.3;fill:#f0f0f0;fill-rule:evenodd;stroke:#000000;stroke-opacity:0.10256998"
             d="m 58.656,257.01 c -29.13,0 -52.781,24.33 -52.781,54.28 46.899,-10.605 58.321,-10.745 105.53,0 1e-5,-29.958 -23.62,-54.281 -52.75,-54.281 z" />
        </g>
        <g
           id="g4136_stop_active">
          <ellipse
             id="path3320-5"
             style="fill:#c1c1c1;fill-opacity:0.15097997;fill-rule:evenodd;stroke:#000000;filter:url(#filter3316-9)"
             transform="matrix(0.99975,0,0,1.0553,22.039,28.758)"
             cx="157.14285"
             cy="266.64789"
             rx="54.285713"
             ry="51.42857" />
          <rect
             id="rect3324-26"
             style="fill:#00d2d5;fill-rule:evenodd;stroke:#000000;stroke-width:0.3"
             ry="0"
             height="58.264"
             width="58.264"
             y="281.01999"
             x="150.00999" />
          <path
             id="path3326-5"
             inkscape:connector-curvature="0"
             sodipodi:nodetypes="cccc"
             style="opacity:0.3;fill:#f0f0f0;fill-rule:evenodd;stroke:#000000;stroke-opacity:0.10256998"
             d="m 178.66,257.01 c -29.13,1e-5 -52.781,24.323 -52.781,54.281 46.899,-10.605 58.321,-10.745 105.53,0 1e-5,-29.958 -23.62,-54.281 -52.75,-54.281 z" />
        </g>
        <g
           id="g4131_play_active">
          <ellipse
             id="path3343-96"
             style="fill:#c1c1c1;fill-opacity:0.15097997;fill-rule:evenodd;stroke:#000000;filter:url(#filter3316-9)"
             transform="matrix(0.99975,0,0,1.0553,142.9,28.757)"
             cx="157.14285"
             cy="266.64789"
             rx="54.285713"
             ry="51.42857" />
          <path
             id="path3366-0"
             style="fill:#00d2d5;fill-rule:evenodd;stroke:#000000;stroke-width:0.5"
             sodipodi:type="star"
             d="m 233,452.36218 -44.04904,22.43173 -44.04904,22.43172 2.59808,-49.36345 2.59808,-49.36344 41.45096,26.93172 z"
             sodipodi:r1="57.078892"
             inkscape:flatsided="false"
             transform="matrix(0.70219,-0.033524,0.034618,0.68,158.88,10.548)"
             sodipodi:arg2="1.0997806"
             sodipodi:arg1="0.052583062"
             inkscape:randomized="0"
             sodipodi:cy="449.36218"
             sodipodi:cx="176"
             inkscape:rounded="0"
             sodipodi:r2="28.539446"
             sodipodi:sides="3" />
          <path
             id="path3347-4"
             inkscape:connector-curvature="0"
             sodipodi:nodetypes="cccc"
             style="opacity:0.3;fill:#f0f0f0;fill-rule:evenodd;stroke:#000000;stroke-opacity:0.10256998"
             d="m 299.51,257.01 c -29.13,1e-5 -52.781,24.323 -52.781,54.281 46.899,-10.605 58.321,-10.745 105.53,0 10e-6,-29.958 -23.62,-54.281 -52.75,-54.281 z" />
        </g>
        <g
           id="g4124_ff_active">
          <ellipse
             id="path3375-0"
             style="fill:#c1c1c1;fill-opacity:0.15097997;fill-rule:evenodd;stroke:#000000;filter:url(#filter3316-9)"
             transform="matrix(0.99975,0,0,1.0553,260.9,28.758)"
             cx="157.14285"
             cy="266.64789"
             rx="54.285713"
             ry="51.42857" />
          <g
             id="g3398-4"
             transform="matrix(0,1.3126,-1.3126,0,826.87,-510.57)">
            <path
               id="path3388-87"
               style="fill:#00d2d5;fill-rule:evenodd;stroke:#000000;stroke-width:0.5"
               sodipodi:type="star"
               sodipodi:sides="3"
               sodipodi:r1="112.00893"
               sodipodi:r2="56.004463"
               sodipodi:arg1="0.13432144"
               sodipodi:arg2="1.181519"
               transform="matrix(-0.028218,-0.20148,0.20148,-0.028218,543.17,382.34)"
               inkscape:randomized="0"
               sodipodi:cy="438.36218"
               sodipodi:cx="212"
               inkscape:rounded="0"
               inkscape:flatsided="false"
               d="M 323,453.36218 233.25481,490.17659 143.50962,526.991 156.5,430.86218 l 12.99038,-96.12882 76.75481,59.31441 z" />
            <path
               id="path3390-0"
               style="fill:#00d2d5;fill-rule:evenodd;stroke:#808080;stroke-width:0.5"
               sodipodi:type="star"
               sodipodi:sides="3"
               sodipodi:r1="112.00893"
               sodipodi:r2="56.004463"
               sodipodi:arg1="0.13432144"
               sodipodi:arg2="1.181519"
               transform="matrix(-0.028218,-0.20148,0.20148,-0.028218,542.61,359.09)"
               inkscape:randomized="0"
               sodipodi:cy="438.36218"
               sodipodi:cx="212"
               inkscape:rounded="0"
               inkscape:flatsided="false"
               d="M 323,453.36218 233.25481,490.17659 143.50962,526.991 156.5,430.86218 l 12.99038,-96.12882 76.75481,59.31441 z" />
          </g>
          <path
             id="path3379-86"
             inkscape:connector-curvature="0"
             sodipodi:nodetypes="cccc"
             style="opacity:0.3;fill:#f0f0f0;fill-rule:evenodd;stroke:#000000;stroke-width:0.5"
             d="m 417.51,257.01 c -29.13,1e-5 -52.781,24.323 -52.781,54.281 46.899,-10.605 58.321,-10.745 105.53,0 10e-6,-29.958 -23.62,-54.281 -52.75,-54.281 z" />
        </g>
        <g
           id="g4117_rewind_active">
          <ellipse
             id="path3402-4"
             style="fill:#c1c1c1;fill-opacity:0.15097997;fill-rule:evenodd;stroke:#000000;filter:url(#filter3316-9)"
             transform="matrix(0.99975,0,0,1.0553,381.9,28.758)"
             cx="157.14285"
             cy="266.64789"
             rx="54.285713"
             ry="51.42857" />
          <g
             id="g3406-7"
             transform="matrix(0,-1.3126,1.3126,0,130.13,1130.9)">
            <path
               id="path3408-9"
               style="fill:#00d2d5;fill-rule:evenodd;stroke:#000000;stroke-width:0.5"
               sodipodi:type="star"
               sodipodi:sides="3"
               sodipodi:r1="112.00893"
               sodipodi:r2="56.004463"
               sodipodi:arg1="0.13432144"
               sodipodi:arg2="1.181519"
               transform="matrix(-0.028218,-0.20148,0.20148,-0.028218,543.17,382.34)"
               inkscape:randomized="0"
               sodipodi:cy="438.36218"
               sodipodi:cx="212"
               inkscape:rounded="0"
               inkscape:flatsided="false"
               d="M 323,453.36218 233.25481,490.17659 143.50962,526.991 156.5,430.86218 l 12.99038,-96.12882 76.75481,59.31441 z" />
            <path
               id="path3410-3"
               style="fill:#00d2d5;fill-rule:evenodd;stroke:#808080;stroke-width:0.5"
               sodipodi:type="star"
               sodipodi:sides="3"
               sodipodi:r1="112.00893"
               sodipodi:r2="56.004463"
               sodipodi:arg1="0.13432144"
               sodipodi:arg2="1.181519"
               transform="matrix(-0.028218,-0.20148,0.20148,-0.028218,542.61,359.09)"
               inkscape:randomized="0"
               sodipodi:cy="438.36218"
               sodipodi:cx="212"
               inkscape:rounded="0"
               inkscape:flatsided="false"
               d="M 323,453.36218 233.25481,490.17659 143.50962,526.991 156.5,430.86218 l 12.99038,-96.12882 76.75481,59.31441 z" />
          </g>
          <path
             id="path3404-9"
             inkscape:connector-curvature="0"
             sodipodi:nodetypes="cccc"
             style="opacity:0.3;fill:#f0f0f0;fill-rule:evenodd;stroke:#808080;stroke-width:0.5"
             d="m 538.51,257.01 c -29.13,1e-5 -52.781,24.323 -52.781,54.281 46.899,-10.605 58.321,-10.745 105.53,0 10e-6,-29.958 -23.62,-54.281 -52.75,-54.281 z" />
        </g>
      </g>
      <g
         id="g4233-step_forward_active"
         transform="translate(0,118)"
      >
        <ellipse
           id="path2383-2"
           style="fill:#c1c1c1;fill-opacity:0.15097997;fill-rule:evenodd;stroke:#000000;filter:url(#filter3316-9-3)"
           transform="matrix(0.99975,0,0,1.0553,502.0393,-207.02999)"
           cx="157.14285"
           cy="266.64789"
           rx="54.285713"
           ry="51.42857" />
        <g
           transform="translate(-0.25864596,0.07203505)"
           id="g3804-9">
          <rect
             x="673.2066"
             y="45.899994"
             width="17.211"
             height="56.783001"
             ry="0"
             style="fill:#00d2d5;fill-rule:evenodd;stroke:#000000;stroke-width:0.5"
             id="rect51-1" />
          <path
             d="M 323,453.36218 233.25481,490.17659 143.50962,526.991 156.5,430.86218 l 12.99038,-96.12882 76.75481,59.31441 z"
             inkscape:flatsided="false"
             inkscape:rounded="0"
             sodipodi:cx="212"
             sodipodi:cy="438.36218"
             inkscape:randomized="0"
             transform="matrix(0.26446265,-0.03703895,0.03703895,0.26446265,570.83231,-33.859509)"
             sodipodi:arg2="1.181519"
             sodipodi:arg1="0.13432144"
             sodipodi:r2="56.004463"
             sodipodi:r1="112.00893"
             sodipodi:sides="3"
             sodipodi:type="star"
             style="fill:#00d2d5;fill-rule:evenodd;stroke:#000000;stroke-width:0.5"
             id="path3388-3-2" />
        </g>
        <path
           id="path53-7"
           d="m 658.66,21.229206 c -29.13,10e-6 -52.781,24.323 -52.781,54.281 46.899,-10.605 58.321,-10.745 105.53,0 10e-6,-29.958 -23.62,-54.281 -52.75,-54.281 z"
           sodipodi:nodetypes="cccc"
           style="opacity:0.3;fill:#ffffff;fill-rule:evenodd;stroke:#000000;stroke-opacity:0.10256998"
           inkscape:connector-curvature="0" />
      </g>
      <g
         id="g4233_step_backward_active"
         transform="translate(118,118)"
      >
        <ellipse
           id="path2383-35"
           style="fill:#c1c1c1;fill-opacity:0.15097997;fill-rule:evenodd;stroke:#000000;filter:url(#filter3316-9-36)"
           transform="matrix(0.99975,0,0,1.0553,502.0393,-207.02999)"
           cx="157.14285"
           cy="266.64789"
           rx="54.285713"
           ry="51.42857" />
        <g
           transform="translate(-0.25864596,0.07203505)"
           id="g3804-6">
          <rect
             x="673.2066"
             y="45.899994"
             width="17.211"
             height="56.783001"
             ry="0"
             style="fill:#00d2d5;fill-rule:evenodd;stroke:#000000;stroke-width:0.5"
             id="rect51-2" />
          <path
             d="M 323,453.36218 233.25481,490.17659 143.50962,526.991 156.5,430.86218 l 12.99038,-96.12882 76.75481,59.31441 z"
             inkscape:flatsided="false"
             inkscape:rounded="0"
             sodipodi:cx="212"
             sodipodi:cy="438.36218"
             inkscape:randomized="0"
             transform="matrix(0.26446265,-0.03703895,0.03703895,0.26446265,570.83231,-33.859509)"
             sodipodi:arg2="1.181519"
             sodipodi:arg1="0.13432144"
             sodipodi:r2="56.004463"
             sodipodi:r1="112.00893"
             sodipodi:sides="3"
             sodipodi:type="star"
             style="fill:#00d2d5;fill-rule:evenodd;stroke:#000000;stroke-width:0.5"
             id="path3388-3-9" />
        </g>
        <path
           id="path53-12"
           d="m 658.66,21.229206 c -29.13,10e-6 -52.781,24.323 -52.781,54.281 46.899,-10.605 58.321,-10.745 105.53,0 10e-6,-29.958 -23.62,-54.281 -52.75,-54.281 z"
           sodipodi:nodetypes="cccc"
           style="opacity:0.3;fill:#ffffff;fill-rule:evenodd;stroke:#000000;stroke-opacity:0.10256998"
           inkscape:connector-curvature="0" />
      </g>
      <g
         id="g3982_pause_disabled"
         transform="translate(0, 5)">
        <g
           id="g3919">
          <ellipse
             ry="51.42857"
             rx="54.285713"
             cy="266.64789"
             cx="157.14285"
             transform="matrix(0.99975,0,0,1.0553,-97.961,24.865)"
             style="fill:#c1c1c1;fill-opacity:0.15097997;fill-rule:evenodd;stroke:#000000;filter:url(#filter3316-9)"
             id="path2383-4" />
          <rect
             x="66.537003"
             y="277.85999"
             width="17.211"
             height="56.783001"
             ry="0"
             style="fill:#080808;fill-rule:evenodd;stroke:#000000;stroke-opacity:0.10256998"
             id="rect3237-2" />
          <rect
             x="34.536999"
             y="277.85999"
             width="17.211"
             height="56.783001"
             ry="0"
             style="fill:#080808;fill-rule:evenodd;stroke:#000000;stroke-opacity:0.10256998"
             id="rect3239-2" />
          <path
             d="m 58.656,253.12 c -29.13,1e-5 -52.781,24.323 -52.781,54.281 46.899,-10.605 58.321,-10.745 105.53,0 1e-5,-29.958 -23.62,-54.281 -52.75,-54.281 z"
             inkscape:connector-curvature="0"
             sodipodi:nodetypes="cccc"
             style="opacity:0.3;fill:#f0f0f0;fill-rule:evenodd;stroke:#000000;stroke-opacity:0.10256998"
             id="path3245-6" />
        </g>
        <ellipse
           ry="51.42857"
           rx="54.285713"
           cy="266.64789"
           cx="157.14285"
           transform="matrix(0.99975,0,0,1.0553,-97.961,24.865)"
           style="fill:#f0f0f0;fill-opacity:0.31764999;fill-rule:evenodd;filter:url(#filter3316-1-1)"
           id="path2383-4-6" />
      </g>
      <g
         id="g3990_stop_disabled"
         transform="translate(0, 5)">
        <g
           transform="translate(-104.86,33.893)"
           id="g3336-4">
          <ellipse
             ry="51.42857"
             rx="54.285713"
             cy="266.64789"
             cx="157.14285"
             transform="matrix(0.99975,0,0,1.0553,126.9,-9.028)"
             style="fill:#c1c1c1;fill-opacity:0.15097997;fill-rule:evenodd;stroke:#000000;filter:url(#filter3316-9)"
             id="path3320-1" />
          <rect
             x="254.87"
             y="243.23"
             width="58.264"
             height="58.264"
             ry="0"
             style="fill:#080808;fill-rule:evenodd;stroke:#000000;stroke-opacity:0.10256998"
             id="rect3324-2" />
          <path
             d="m 283.51,219.23 c -29.13,1e-5 -52.781,24.323 -52.781,54.281 46.899,-10.605 58.321,-10.745 105.53,0 10e-6,-29.958 -23.62,-54.281 -52.75,-54.281 z"
             inkscape:connector-curvature="0"
             sodipodi:nodetypes="cccc"
             style="opacity:0.3;fill:#f0f0f0;fill-rule:evenodd;stroke:#000000;stroke-opacity:0.10256998"
             id="path3326-8" />
        </g>
        <ellipse
           ry="51.42857"
           rx="54.285713"
           cy="266.64789"
           cx="157.14285"
           transform="matrix(0.99975,0,0,1.0553,22.039,24.865)"
           style="fill:#f0f0f0;fill-opacity:0.31764999;fill-rule:evenodd;filter:url(#filter3316-1-1-1)"
           id="path2383-4-6-4" />
      </g>
      <g
        id="g3997_play_disabled"
        transform="translate(0, 5)"
      >

        <g
           transform="translate(-105,31.893)"
           id="g3368-8">
          <ellipse
             ry="51.42857"
             rx="54.285713"
             cy="266.64789"
             cx="157.14285"
             transform="matrix(0.99975,0,0,1.0553,247.9,-7.028)"
             style="fill:#c1c1c1;fill-opacity:0.15097997;fill-rule:evenodd;stroke:#000000;filter:url(#filter3316-9)"
             id="path3343-9" />
          <path
             d="m 233,452.36218 -44.04904,22.43173 -44.04904,22.43172 2.59808,-49.36345 2.59808,-49.36344 41.45096,26.93172 z"
             inkscape:flatsided="false"
             inkscape:rounded="0"
             sodipodi:cx="176"
             sodipodi:cy="449.36218"
             inkscape:randomized="0"
             transform="matrix(0.70219,-0.033524,0.034618,0.68,263.88,-25.238)"
             sodipodi:arg2="1.0997806"
             sodipodi:arg1="0.052583062"
             sodipodi:r2="28.539446"
             sodipodi:r1="57.078892"
             sodipodi:sides="3"
             sodipodi:type="star"
             style="fill:#080808;fill-rule:evenodd;stroke:#000000;stroke-opacity:0.10256998"
             id="path3366-2" />
          <path
             d="m 404.51,221.23 c -29.13,1e-5 -52.781,24.323 -52.781,54.281 46.899,-10.605 58.321,-10.745 105.53,0 10e-6,-29.958 -23.62,-54.281 -52.75,-54.281 z"
             inkscape:connector-curvature="0"
             sodipodi:nodetypes="cccc"
             style="opacity:0.3;fill:#f0f0f0;fill-rule:evenodd;stroke:#000000;stroke-opacity:0.10256998"
             id="path3347-8" />
        </g>
        <ellipse
           ry="51.42857"
           rx="54.285713"
           cy="266.64789"
           cx="157.14285"
           transform="matrix(0.99975,0,0,1.0553,142.9,24.865)"
           style="fill:#f0f0f0;fill-opacity:0.31764999;fill-rule:evenodd;filter:url(#filter3316-1-1-15)"
           id="path2383-4-6-9" />
      </g>
      <g
        id="g4004_ff_disabled"
        transform="translate(0, 5)"
      >
        <g
           transform="translate(-4,234.68)"
           id="g3486-8">
          <ellipse
             ry="51.42857"
             rx="54.285713"
             cy="266.64789"
             cx="157.14285"
             transform="matrix(0.99975,0,0,1.0553,264.9,-209.81)"
             style="fill:#c1c1c1;fill-opacity:0.15097997;fill-rule:evenodd;stroke:#000000;filter:url(#filter3316-9)"
             id="path3375-8" />
          <g
             transform="matrix(0,1.3126,-1.3126,0,830.87,-749.14)"
             id="g3398-6">
            <path
               sodipodi:sides="3"
               sodipodi:r2="56.004463"
               inkscape:rounded="0"
               sodipodi:cx="212"
               sodipodi:cy="438.36218"
               inkscape:randomized="0"
               sodipodi:arg1="0.13432144"
               sodipodi:arg2="1.181519"
               transform="matrix(-0.028218,-0.20148,0.20148,-0.028218,543.17,382.34)"
               inkscape:flatsided="false"
               sodipodi:r1="112.00893"
               d="M 323,453.36218 233.25481,490.17659 143.50962,526.991 156.5,430.86218 l 12.99038,-96.12882 76.75481,59.31441 z"
               sodipodi:type="star"
               style="fill:#080808;fill-rule:evenodd;stroke:#000000;stroke-opacity:0.10256998"
               id="path3388-8" />
            <path
               sodipodi:sides="3"
               sodipodi:r2="56.004463"
               inkscape:rounded="0"
               sodipodi:cx="212"
               sodipodi:cy="438.36218"
               inkscape:randomized="0"
               sodipodi:arg1="0.13432144"
               sodipodi:arg2="1.181519"
               transform="matrix(-0.028218,-0.20148,0.20148,-0.028218,542.61,359.09)"
               inkscape:flatsided="false"
               sodipodi:r1="112.00893"
               d="M 323,453.36218 233.25481,490.17659 143.50962,526.991 156.5,430.86218 l 12.99038,-96.12882 76.75481,59.31441 z"
               sodipodi:type="star"
               style="fill:#080808;fill-rule:evenodd;stroke:#000000;stroke-opacity:0.10256998"
               id="path3390-3" />
          </g>
          <path
             d="m 421.51,18.442 c -29.13,10e-6 -52.781,24.323 -52.781,54.281 46.899,-10.605 58.321,-10.745 105.53,0 10e-6,-29.958 -23.62,-54.281 -52.75,-54.281 z"
             inkscape:connector-curvature="0"
             sodipodi:nodetypes="cccc"
             style="opacity:0.3;fill:#f0f0f0;fill-rule:evenodd;stroke:#000000;stroke-opacity:0.10256998"
             id="path3379-8" />
        </g>
        <ellipse
           ry="51.42857"
           rx="54.285713"
           cy="266.64789"
           cx="157.14285"
           transform="matrix(0.99975,0,0,1.0553,260.9,24.865)"
           style="fill:#f0f0f0;fill-opacity:0.31764999;fill-rule:evenodd;filter:url(#filter3316-1-1-8)"
           id="path2383-4-6-8" />
      </g>
      <g
        id="g4013_rewind_disabled"
        transform="translate(0, 5)"
      >
        <g
           transform="translate(-6,231.89)"
           id="g3493-3">
          <ellipse
             ry="51.42857"
             rx="54.285713"
             cy="266.64789"
             cx="157.14285"
             transform="matrix(0.99975,0,0,1.0553,387.9,-207.03)"
             style="fill:#c1c1c1;fill-opacity:0.15097997;fill-rule:evenodd;stroke:#000000;filter:url(#filter3316-9)"
             id="path3402-3" />
          <g
             transform="matrix(0,-1.3126,1.3126,0,136.13,895.08)"
             id="g3406-3">
            <path
               sodipodi:sides="3"
               sodipodi:r2="56.004463"
               inkscape:rounded="0"
               sodipodi:cx="212"
               sodipodi:cy="438.36218"
               inkscape:randomized="0"
               sodipodi:arg1="0.13432144"
               sodipodi:arg2="1.181519"
               transform="matrix(-0.028218,-0.20148,0.20148,-0.028218,543.17,382.34)"
               inkscape:flatsided="false"
               sodipodi:r1="112.00893"
               d="M 323,453.36218 233.25481,490.17659 143.50962,526.991 156.5,430.86218 l 12.99038,-96.12882 76.75481,59.31441 z"
               sodipodi:type="star"
               style="fill:#080808;fill-rule:evenodd;stroke:#000000;stroke-opacity:0.10256998"
               id="path3408-8" />
            <path
               sodipodi:sides="3"
               sodipodi:r2="56.004463"
               inkscape:rounded="0"
               sodipodi:cx="212"
               sodipodi:cy="438.36218"
               inkscape:randomized="0"
               sodipodi:arg1="0.13432144"
               sodipodi:arg2="1.181519"
               transform="matrix(-0.028218,-0.20148,0.20148,-0.028218,542.61,359.09)"
               inkscape:flatsided="false"
               sodipodi:r1="112.00893"
               d="M 323,453.36218 233.25481,490.17659 143.50962,526.991 156.5,430.86218 l 12.99038,-96.12882 76.75481,59.31441 z"
               sodipodi:type="star"
               style="fill:#080808;fill-rule:evenodd;stroke:#000000;stroke-opacity:0.10256998"
               id="path3410-0" />
          </g>
          <path
             d="m 544.51,21.227 c -29.13,10e-6 -52.781,24.323 -52.781,54.281 46.899,-10.605 58.321,-10.745 105.53,0 10e-6,-29.958 -23.62,-54.281 -52.75,-54.281 z"
             inkscape:connector-curvature="0"
             sodipodi:nodetypes="cccc"
             style="opacity:0.3;fill:#f0f0f0;fill-rule:evenodd;stroke:#000000;stroke-opacity:0.10256998"
             id="path3404-4" />
        </g>
        <ellipse
           ry="51.42857"
           rx="54.285713"
           cy="266.64789"
           cx="157.14285"
           transform="matrix(0.99975,0,0,1.0553,381.9,24.865)"
           style="fill:#f0f0f0;fill-opacity:0.31764999;fill-rule:evenodd;filter:url(#filter3316-1-1-5)"
           id="path2383-4-6-2" />
      </g>
      <ellipse
         ry="51.42857"
         rx="54.285713"
         cy="266.64789"
         cx="157.14285"
         transform="matrix(0.99975,0,0,1.0553,502.0393,24.87)"
         style="fill:#c1c1c1;fill-opacity:0.15097997;fill-rule:evenodd;stroke:#000000;filter:url(#filter3316-9-0)"
         id="path2383-6" />
      <g
         id="g3804-0"
         transform="translate(-0.25864596,231.97203)">
        <rect
           id="rect51-6"
           style="fill:#080808;fill-rule:evenodd;stroke:#000000;stroke-width:0.5"
           ry="0"
           height="56.783001"
           width="17.211"
           y="45.899994"
           x="673.2066" />
        <path
           id="path3388-3-26"
           style="fill:#080808;fill-rule:evenodd;stroke:#000000;stroke-opacity:0.10256998"
           sodipodi:type="star"
           sodipodi:sides="3"
           sodipodi:r1="112.00893"
           sodipodi:r2="56.004463"
           sodipodi:arg1="0.13432144"
           sodipodi:arg2="1.181519"
           transform="matrix(0.26446265,-0.03703895,0.03703895,0.26446265,570.83231,-33.859509)"
           inkscape:randomized="0"
           sodipodi:cy="438.36218"
           sodipodi:cx="212"
           inkscape:rounded="0"
           inkscape:flatsided="false"
           d="M 323,453.36218 233.25481,490.17659 143.50962,526.991 156.5,430.86218 l 12.99038,-96.12882 76.75481,59.31441 z" />
      </g>
      <path
         inkscape:connector-curvature="0"
         style="opacity:0.3;fill:#ffffff;fill-rule:evenodd;stroke:#000000;stroke-opacity:0.10256998"
         sodipodi:nodetypes="cccc"
         d="m 658.66,253.1292 c -29.13,1e-5 -52.781,24.323 -52.781,54.281 46.899,-10.605 58.321,-10.745 105.53,0 10e-6,-29.958 -23.62,-54.281 -52.75,-54.281 z"
         id="path53-1" />
      <ellipse
         id="path2383-4-6-2-7"
         style="fill:#f0f0f0;fill-opacity:0.31764999;fill-rule:evenodd;filter:url(#filter3316-1-1-5-2)"
         transform="matrix(0.99975,0,0,1.0553,502.0393,21.142123)"
         cx="157.14285"
         cy="266.64789"
         rx="54.285713"
         ry="51.42857" />
      <g
         id="g3595_step_back_disabled"
         transform="translate(8.757467,-7.492764)">
        <g
           transform="matrix(-1,0,0,1,1427.7869,239.73691)"
           id="g3804-06">
          <rect
             x="673.2066"
             y="45.899994"
             width="17.211"
             height="56.783001"
             ry="0"
             style="fill:#080808;fill-rule:evenodd;stroke:#000000;stroke-width:0.5"
             id="rect51-26" />
          <path
             d="M 323,453.36218 233.25481,490.17659 143.50962,526.991 156.5,430.86218 l 12.99038,-96.12882 76.75481,59.31441 z"
             inkscape:flatsided="false"
             inkscape:rounded="0"
             sodipodi:cx="212"
             sodipodi:cy="438.36218"
             inkscape:randomized="0"
             transform="matrix(0.26446265,-0.03703895,0.03703895,0.26446265,570.83231,-33.859509)"
             sodipodi:arg2="1.181519"
             sodipodi:arg1="0.13432144"
             sodipodi:r2="56.004463"
             sodipodi:r1="112.00893"
             sodipodi:sides="3"
             sodipodi:type="star"
             style="fill:#080808;fill-rule:evenodd;stroke:#000000;stroke-opacity:0.10256998"
             id="path3388-3-1" />
        </g>
        <g
           transform="translate(21.112643,0)"
           id="g3590">
          <ellipse
             ry="51.42857"
             rx="54.285713"
             cy="266.64789"
             cx="157.14285"
             transform="matrix(-0.99975,0,0,1.0553,904.37629,32.634887)"
             style="fill:#c1c1c1;fill-opacity:0.15097997;fill-rule:evenodd;stroke:#000000;filter:url(#filter3316-9-7)"
             id="path2383-36" />
          <path
             inkscape:connector-curvature="0"
             style="opacity:0.3;fill:#ffffff;fill-rule:evenodd;stroke:#000000;stroke-opacity:0.10256998"
             sodipodi:nodetypes="cccc"
             d="m 747.25672,259.40132 c 29.13,10e-6 52.781,24.323 52.781,54.281 -46.899,-10.605 -58.321,-10.745 -105.53,0 -10e-6,-29.958 23.62,-54.281 52.75,-54.281 z"
             id="path53-8" />
          <ellipse
             id="path2383-4-6-2-7-3"
             style="fill:#f0f0f0;fill-opacity:0.31764999;fill-rule:evenodd;filter:url(#filter3316-1-1-5-2-0)"
             transform="matrix(0.99975,0,0,1.0553,590.16914,32.634887)"
             cx="157.14285"
             cy="266.64789"
             rx="54.285713"
             ry="51.42857" />
        </g>
      </g>
    </g>
  </g>
  <metadata
     id="metadata119">
    <rdf:RDF>
      <cc:Work>
        <dc:format>image/svg+xml</dc:format>
        <dc:type
           rdf:resource="http://purl.org/dc/dcmitype/StillImage" />
        <cc:license
           rdf:resource="http://creativecommons.org/publicdomain/zero/1.0/" />
        <dc:publisher>
          <cc:Agent
             rdf:about="http://openclipart.org/">
            <dc:title>Openclipart</dc:title>
          </cc:Agent>
        </dc:publisher>
        <dc:title></dc:title>
        <dc:date>2011-02-03T11:08:08</dc:date>
        <dc:description>See them in action at: http://voinici.ceata.org/~tct/cache_sim-ceata-svn/cache_sim.html</dc:description>
        <dc:source>https://openclipart.org/detail/116929/glossy-media-player-normal-active-focus-buttons-by-tct</dc:source>
        <dc:creator>
          <cc:Agent>
            <dc:title>tct</dc:title>
          </cc:Agent>
        </dc:creator>
        <dc:subject>
          <rdf:Bag>
            <rdf:li>button</rdf:li>
            <rdf:li>player</rdf:li>
          </rdf:Bag>
        </dc:subject>
      </cc:Work>
      <cc:License
         rdf:about="http://creativecommons.org/publicdomain/zero/1.0/">
        <cc:permits
           rdf:resource="http://creativecommons.org/ns#Reproduction" />
        <cc:permits
           rdf:resource="http://creativecommons.org/ns#Distribution" />
        <cc:permits
           rdf:resource="http://creativecommons.org/ns#DerivativeWorks" />
      </cc:License>
    </rdf:RDF>
  </metadata>
</svg>
