# Format is:
#  - comments begin with a hash
#  - target directory is a section in braces []
#  - source path & filename follows
#    - destinations remain in context until a new dest is described
#    - follows in context of the previous target directories
#    - relative to top-level build dir
#    - no default destination; a dest line must precede any source
#    - leading and trailing whitespace is ignored


[/etc/pyplayer/]
    pyplayer2/config.py
    pyplayer2/pyplayerd.conf

[/etc/apache2/vhosts.d/]
    apache2/critter_list.include

[/usr/local/lib/critter_list/]

[/usr/local/bin/]
    pyplayer2/pyplayer.py
    pyplayer2/pyplayerd.py

[/usr/local/lib/pyplayer/]
    pyplayer2/lib/__init__.py
    pyplayer2/lib/mplayer_constants.py
    pyplayer2/lib/pyplayer_lib.py
    pyplayer2/lib/pyplayer_mplayer_if.py
    pyplayer2/lib/pyplayer_queue.py
    pyplayer2/lib/pyplayerc.py
    pyplayer2/lib/python_process_list.py
    pyplayer2/lib/trace.py

[/usr/local/share/doc/pyplayer/]
    INSTALL.md
    KNOWN_ISSUES.md
    README.md
    TODO.md

[/var/www/localhost/critter_list/db/]
    # db/critters.db

[/var/www/localhost/critter_list/wsgi/]
    # this is all links, handled above

[/var/www/localhost/critter_list/wsgi/js/]
    js/vote.js
    js/player_controls.js

[/var/www/localhost/critter_list/wsgi/template/]
    template/13780468461885975955Audio_Fader_Slider.svg
    template/close.button.png
    template/disconnect2d.svg
    template/gong02.jpg
    template/header04.svg
    template/thumbs_down2.png
    template/thumbs_up.png
    template/up_arrow2.png

[/var/www/localhost/critter_list/wsgi/examples/]
    template/examples/ui-stereo-10.png

[/var/www/localhost/critter_list/wsgi/buttons4/]
    template/buttons4/enabled.svg

[/var/www/localhost/critter_list/wsgi/template/css/]
    template/css/progress.css
    template/css/effects.css
    template/css/rotate.css
    template/css/graphics.css
    template/css/fonts.css
    template/css/buttons.css
    template/css/layout.css
    template/css/borders.css
    template/css/colors.css
    template/css/wb_starter_button_middle.png
    template/css/wb_starter_button_middle_selected2.png

# Populate at run-time:
#[/var/lib/critter_list/]
#[/var/lib/pyplayer/]
#[/run/pyplayer/]
#[~/.run/pyplayer/]

